EESchema Schematic File Version 2
LIBS:power
LIBS:device
LIBS:transistors
LIBS:conn
LIBS:linear
LIBS:regul
LIBS:74xx
LIBS:cmos4000
LIBS:adc-dac
LIBS:memory
LIBS:xilinx
LIBS:microcontrollers
LIBS:dsp
LIBS:microchip
LIBS:analog_switches
LIBS:motorola
LIBS:texas
LIBS:intel
LIBS:audio
LIBS:interface
LIBS:digital-audio
LIBS:philips
LIBS:display
LIBS:cypress
LIBS:siliconi
LIBS:opto
LIBS:atmel
LIBS:contrib
LIBS:valves
LIBS:feather_m0_datalogger
LIBS:RhinoLogger-cache
EELAYER 25 0
EELAYER END
$Descr A4 11693 8268
encoding utf-8
Sheet 1 1
Title "Schéma RhinoLogger"
Date "2017-03-31"
Rev "V1.01"
Comp ""
Comment1 ""
Comment2 ""
Comment3 ""
Comment4 ""
$EndDescr
$Comp
L TL074 U1
U 1 1 577404F8
P 4500 1600
F 0 "U1" H 4550 1800 50  0000 C CNN
F 1 "TL084" H 4650 1400 50  0000 C CNN
F 2 "Housings_DIP:DIP-14_W7.62mm" H 4450 1700 50  0001 C CNN
F 3 "" H 4550 1800 50  0000 C CNN
	1    4500 1600
	1    0    0    -1  
$EndComp
$Comp
L TL074 U1
U 2 1 5774070D
P 6000 1600
F 0 "U1" H 6050 1800 50  0000 C CNN
F 1 "TL084" H 6150 1400 50  0000 C CNN
F 2 "Housings_DIP:DIP-14_W7.62mm" H 5950 1700 50  0001 C CNN
F 3 "" H 6050 1800 50  0000 C CNN
	2    6000 1600
	1    0    0    -1  
$EndComp
$Comp
L TL074 U1
U 3 1 5774075A
P 7500 1600
F 0 "U1" H 7550 1800 50  0000 C CNN
F 1 "TL084" H 7650 1400 50  0000 C CNN
F 2 "Housings_DIP:DIP-14_W7.62mm" H 7450 1700 50  0001 C CNN
F 3 "" H 7550 1800 50  0000 C CNN
	3    7500 1600
	1    0    0    -1  
$EndComp
$Comp
L TL074 U1
U 4 1 577407CD
P 9000 1600
F 0 "U1" H 9050 1800 50  0000 C CNN
F 1 "TL084" H 9150 1400 50  0000 C CNN
F 2 "Housings_DIP:DIP-14_W7.62mm" H 8950 1700 50  0001 C CNN
F 3 "" H 9050 1800 50  0000 C CNN
	4    9000 1600
	1    0    0    -1  
$EndComp
$Comp
L R R1
U 1 1 577415A2
P 3200 850
F 0 "R1" V 3280 850 50  0000 C CNN
F 1 "10k" V 3200 850 50  0000 C CNN
F 2 "Empreintes:Resistor_Horizontal_RM10mm" V 3130 850 50  0001 C CNN
F 3 "" H 3200 850 50  0000 C CNN
	1    3200 850 
	0    1    1    0   
$EndComp
$Comp
L R R2
U 1 1 577416C7
P 4150 2000
F 0 "R2" V 4230 2000 50  0000 C CNN
F 1 "10k" V 4150 2000 50  0000 C CNN
F 2 "Empreintes:Resistor_Horizontal_RM10mm" V 4080 2000 50  0001 C CNN
F 3 "" H 4150 2000 50  0000 C CNN
	1    4150 2000
	1    0    0    -1  
$EndComp
$Comp
L R R4
U 1 1 5774170E
P 4650 1250
F 0 "R4" V 4730 1250 50  0000 C CNN
F 1 "150k" V 4650 1250 50  0000 C CNN
F 2 "Empreintes:Resistor_Horizontal_RM10mm" V 4580 1250 50  0001 C CNN
F 3 "" H 4650 1250 50  0000 C CNN
	1    4650 1250
	0    1    1    0   
$EndComp
$Comp
L R R3
U 1 1 577418B1
P 3350 1700
F 0 "R3" V 3430 1700 50  0000 C CNN
F 1 "4k7" V 3350 1700 50  0000 C CNN
F 2 "Empreintes:Resistor_Horizontal_RM10mm" V 3280 1700 50  0001 C CNN
F 3 "" H 3350 1700 50  0000 C CNN
	1    3350 1700
	0    1    1    0   
$EndComp
$Comp
L R R6
U 1 1 57741AD4
P 6150 1250
F 0 "R6" V 6230 1250 50  0000 C CNN
F 1 "100k" V 6150 1250 50  0000 C CNN
F 2 "Empreintes:Resistor_Horizontal_RM10mm" V 6080 1250 50  0001 C CNN
F 3 "" H 6150 1250 50  0000 C CNN
	1    6150 1250
	0    1    1    0   
$EndComp
$Comp
L R R5
U 1 1 57741B41
P 5250 2000
F 0 "R5" V 5330 2000 50  0000 C CNN
F 1 "11k" V 5250 2000 50  0000 C CNN
F 2 "Empreintes:Resistor_Horizontal_RM10mm" V 5180 2000 50  0001 C CNN
F 3 "" H 5250 2000 50  0000 C CNN
	1    5250 2000
	1    0    0    -1  
$EndComp
$Comp
L R R7
U 1 1 57741FDE
P 6950 1700
F 0 "R7" V 7030 1700 50  0000 C CNN
F 1 "20k" V 6950 1700 50  0000 C CNN
F 2 "Empreintes:Resistor_Horizontal_RM10mm" V 6880 1700 50  0001 C CNN
F 3 "" H 6950 1700 50  0000 C CNN
	1    6950 1700
	0    1    1    0   
$EndComp
$Comp
L R R8
U 1 1 57742256
P 7650 1250
F 0 "R8" V 7730 1250 50  0000 C CNN
F 1 "100k" V 7650 1250 50  0000 C CNN
F 2 "Empreintes:Resistor_Horizontal_RM10mm" V 7580 1250 50  0001 C CNN
F 3 "" H 7650 1250 50  0000 C CNN
	1    7650 1250
	0    1    1    0   
$EndComp
$Comp
L R R10
U 1 1 577422A3
P 9150 1250
F 0 "R10" V 9230 1250 50  0000 C CNN
F 1 "100k" V 9150 1250 50  0000 C CNN
F 2 "Empreintes:Resistor_Horizontal_RM10mm" V 9080 1250 50  0001 C CNN
F 3 "" H 9150 1250 50  0000 C CNN
	1    9150 1250
	0    1    1    0   
$EndComp
$Comp
L R R9
U 1 1 577422E0
P 8450 1700
F 0 "R9" V 8530 1700 50  0000 C CNN
F 1 "20k" V 8450 1700 50  0000 C CNN
F 2 "Empreintes:Resistor_Horizontal_RM10mm" V 8380 1700 50  0001 C CNN
F 3 "" H 8450 1700 50  0000 C CNN
	1    8450 1700
	0    1    1    0   
$EndComp
$Comp
L C C1
U 1 1 577436F9
P 3050 1700
F 0 "C1" H 3075 1800 50  0000 L CNN
F 1 "47nF" H 3075 1600 50  0000 L CNN
F 2 "Capacitors_ThroughHole:C_Rect_L7_W2_P5" H 3088 1550 50  0001 C CNN
F 3 "" H 3050 1700 50  0000 C CNN
	1    3050 1700
	0    1    1    0   
$EndComp
$Comp
L C C2
U 1 1 5774375E
P 5050 1600
F 0 "C2" H 5075 1700 50  0000 L CNN
F 1 "56pF" H 5075 1500 50  0000 L CNN
F 2 "Capacitors_ThroughHole:C_Rect_L7_W2_P5" H 5088 1450 50  0001 C CNN
F 3 "" H 5050 1600 50  0000 C CNN
	1    5050 1600
	0    1    1    0   
$EndComp
$Comp
L C C4
U 1 1 577437EB
P 6150 950
F 0 "C4" H 6175 1050 50  0000 L CNN
F 1 "12pF" H 6175 850 50  0000 L CNN
F 2 "Capacitors_ThroughHole:C_Rect_L7_W2_P5" H 6188 800 50  0001 C CNN
F 3 "" H 6150 950 50  0000 C CNN
	1    6150 950 
	0    1    1    0   
$EndComp
$Comp
L C C3
U 1 1 5774385A
P 5450 1700
F 0 "C3" H 5475 1800 50  0000 L CNN
F 1 "56pF" H 5475 1600 50  0000 L CNN
F 2 "Capacitors_ThroughHole:C_Rect_L7_W2_P5" H 5488 1550 50  0001 C CNN
F 3 "" H 5450 1700 50  0000 C CNN
	1    5450 1700
	0    1    1    0   
$EndComp
$Comp
L C C5
U 1 1 57743FBF
P 6550 1700
F 0 "C5" H 6575 1800 50  0000 L CNN
F 1 "47nF" H 6575 1600 50  0000 L CNN
F 2 "Capacitors_ThroughHole:C_Rect_L7_W2_P5" H 6588 1550 50  0001 C CNN
F 3 "" H 6550 1700 50  0000 C CNN
	1    6550 1700
	0    1    1    0   
$EndComp
$Comp
L C C6
U 1 1 57744004
P 8050 1700
F 0 "C6" H 8075 1800 50  0000 L CNN
F 1 "47nF" H 8075 1600 50  0000 L CNN
F 2 "Capacitors_ThroughHole:C_Rect_L7_W2_P5" H 8088 1550 50  0001 C CNN
F 3 "" H 8050 1700 50  0000 C CNN
	1    8050 1700
	0    1    1    0   
$EndComp
$Comp
L CONN_01X03 P1
U 1 1 5774D990
P 2350 1700
F 0 "P1" H 2350 1900 50  0000 C CNN
F 1 "MICRO" V 2450 1700 50  0000 C CNN
F 2 "Connectors_Molex:Molex_KK-6410-03_03x2.54mm_Straight" H 2350 1700 50  0001 C CNN
F 3 "" H 2350 1700 50  0000 C CNN
	1    2350 1700
	-1   0    0    1   
$EndComp
$Comp
L SW_PUSH SW1
U 1 1 5775167A
P 9600 4000
F 0 "SW1" H 9750 4110 50  0000 C CNN
F 1 "Select" H 9600 3920 50  0000 C CNN
F 2 "Buttons_Switches_ThroughHole:SW_PUSH_SMALL" H 9600 4000 50  0001 C CNN
F 3 "" H 9600 4000 50  0000 C CNN
	1    9600 4000
	1    0    0    -1  
$EndComp
$Comp
L SW_PUSH SW5
U 1 1 577516FF
P 7050 4000
F 0 "SW5" H 7200 4110 50  0000 C CNN
F 1 "Gauche" H 7050 3920 50  0000 C CNN
F 2 "Buttons_Switches_ThroughHole:SW_PUSH_SMALL" H 7050 4000 50  0001 C CNN
F 3 "" H 7050 4000 50  0000 C CNN
	1    7050 4000
	1    0    0    -1  
$EndComp
$Comp
L SW_PUSH SW2
U 1 1 57751746
P 8800 4000
F 0 "SW2" H 8950 4110 50  0000 C CNN
F 1 "Droite" H 8800 3920 50  0000 C CNN
F 2 "Buttons_Switches_ThroughHole:SW_PUSH_SMALL" H 8800 4000 50  0001 C CNN
F 3 "" H 8800 4000 50  0000 C CNN
	1    8800 4000
	1    0    0    -1  
$EndComp
$Comp
L SW_PUSH SW3
U 1 1 5775178F
P 8100 4300
F 0 "SW3" H 8250 4410 50  0000 C CNN
F 1 "Bas" H 8100 4220 50  0000 C CNN
F 2 "Buttons_Switches_ThroughHole:SW_PUSH_SMALL" H 8100 4300 50  0001 C CNN
F 3 "" H 8100 4300 50  0000 C CNN
	1    8100 4300
	1    0    0    -1  
$EndComp
$Comp
L SW_PUSH SW4
U 1 1 577517FC
P 8100 3700
F 0 "SW4" H 8250 3810 50  0000 C CNN
F 1 "Haut" H 8100 3620 50  0000 C CNN
F 2 "Buttons_Switches_ThroughHole:SW_PUSH_SMALL" H 8100 3700 50  0001 C CNN
F 3 "" H 8100 3700 50  0000 C CNN
	1    8100 3700
	1    0    0    -1  
$EndComp
$Comp
L R R11
U 1 1 5775256B
P 10300 3050
F 0 "R11" V 10380 3050 50  0000 C CNN
F 1 "10k" V 10300 3050 50  0000 C CNN
F 2 "Empreintes:Resistor_Horizontal_RM10mm" V 10230 3050 50  0001 C CNN
F 3 "" H 10300 3050 50  0000 C CNN
	1    10300 3050
	1    0    0    -1  
$EndComp
$Comp
L R R12
U 1 1 577525DE
P 8350 3300
F 0 "R12" V 8430 3300 50  0000 C CNN
F 1 "2k2" V 8350 3300 50  0000 C CNN
F 2 "Empreintes:Resistor_Horizontal_RM10mm" V 8280 3300 50  0001 C CNN
F 3 "" H 8350 3300 50  0000 C CNN
	1    8350 3300
	0    1    1    0   
$EndComp
$Comp
L R R13
U 1 1 57752637
P 7550 3300
F 0 "R13" V 7630 3300 50  0000 C CNN
F 1 "10k" V 7550 3300 50  0000 C CNN
F 2 "Empreintes:Resistor_Horizontal_RM10mm" V 7480 3300 50  0001 C CNN
F 3 "" H 7550 3300 50  0000 C CNN
	1    7550 3300
	0    1    1    0   
$EndComp
$Comp
L R R14
U 1 1 57752696
P 6850 3300
F 0 "R14" V 6930 3300 50  0000 C CNN
F 1 "27k" V 6850 3300 50  0000 C CNN
F 2 "Empreintes:Resistor_Horizontal_RM10mm" V 6780 3300 50  0001 C CNN
F 3 "" H 6850 3300 50  0000 C CNN
	1    6850 3300
	0    1    1    0   
$EndComp
$Comp
L CONN_01X03 P2
U 1 1 577595F5
P 7050 5300
F 0 "P2" H 7050 5500 50  0000 C CNN
F 1 "DHT22" V 7150 5300 50  0000 C CNN
F 2 "Connectors_Molex:Molex_KK-6410-03_03x2.54mm_Straight" H 7050 5300 50  0001 C CNN
F 3 "" H 7050 5300 50  0000 C CNN
	1    7050 5300
	1    0    0    -1  
$EndComp
NoConn ~ 3200 5200
NoConn ~ 3200 5100
NoConn ~ 3200 4300
NoConn ~ 4100 4600
NoConn ~ 3200 5000
NoConn ~ 3200 4500
$Comp
L CONN_01X01 P3
U 1 1 57761821
P 4750 4150
F 0 "P3" H 4750 4250 50  0000 C CNN
F 1 "Signal Test" V 4850 4150 50  0000 C CNN
F 2 "Socket_Strips:Socket_Strip_Straight_1x01" H 4750 4150 50  0001 C CNN
F 3 "" H 4750 4150 50  0000 C CNN
	1    4750 4150
	0    -1   -1   0   
$EndComp
$Comp
L CONN_01X04 P4
U 1 1 577645BE
P 3400 7100
F 0 "P4" H 3400 7350 50  0000 C CNN
F 1 "Ecran OLED" V 3500 7100 50  0000 C CNN
F 2 "Pin_Headers:Pin_Header_Straight_1x04" H 3400 7100 50  0001 C CNN
F 3 "" H 3400 7100 50  0000 C CNN
	1    3400 7100
	-1   0    0    1   
$EndComp
$Comp
L CONN_01X05 P5
U 1 1 5776465D
P 6100 7400
F 0 "P5" H 6100 7700 50  0000 C CNN
F 1 "RTC" V 6200 7400 50  0000 C CNN
F 2 "Pin_Headers:Pin_Header_Straight_1x05" H 6100 7400 50  0001 C CNN
F 3 "" H 6100 7400 50  0000 C CNN
	1    6100 7400
	0    1    1    0   
$EndComp
NoConn ~ 6000 7200
$Comp
L R R15
U 1 1 57768891
P 1800 3550
F 0 "R15" V 1880 3550 50  0000 C CNN
F 1 "24k" V 1800 3550 50  0000 C CNN
F 2 "Empreintes:Resistor_Horizontal_RM10mm" V 1730 3550 50  0001 C CNN
F 3 "" H 1800 3550 50  0000 C CNN
	1    1800 3550
	1    0    0    -1  
$EndComp
$Comp
L R R16
U 1 1 57768956
P 1800 4250
F 0 "R16" V 1880 4250 50  0000 C CNN
F 1 "100k" V 1800 4250 50  0000 C CNN
F 2 "Empreintes:Resistor_Horizontal_RM10mm" V 1730 4250 50  0001 C CNN
F 3 "" H 1800 4250 50  0000 C CNN
	1    1800 4250
	1    0    0    -1  
$EndComp
NoConn ~ 3200 5300
$Comp
L CONN_01X06 P6
U 1 1 5776D41E
P 2050 7600
F 0 "P6" H 2050 7950 50  0000 C CNN
F 1 "GSM RX-TX-VCC" V 2150 7600 50  0000 C CNN
F 2 "Pin_Headers:Pin_Header_Straight_1x06" H 2050 7600 50  0001 C CNN
F 3 "" H 2050 7600 50  0000 C CNN
	1    2050 7600
	0    1    1    0   
$EndComp
$Comp
L CONN_01X06 P7
U 1 1 5776D4A7
P 1000 7600
F 0 "P7" H 1000 7950 50  0000 C CNN
F 1 "GSM NC" V 1100 7600 50  0000 C CNN
F 2 "Pin_Headers:Pin_Header_Straight_1x06" H 1000 7600 50  0001 C CNN
F 3 "" H 1000 7600 50  0000 C CNN
	1    1000 7600
	0    1    1    0   
$EndComp
NoConn ~ 1250 7400
NoConn ~ 1050 7400
NoConn ~ 950  7400
NoConn ~ 850  7400
NoConn ~ 750  7400
$Comp
L CONN_01X03 P8
U 1 1 57776CB0
P 1800 800
F 0 "P8" H 1800 1000 50  0000 C CNN
F 1 "12V Externe" V 1900 800 50  0000 C CNN
F 2 "Connectors_Molex:Molex_KK-6410-03_03x2.54mm_Straight" H 1800 800 50  0001 C CNN
F 3 "" H 1800 800 50  0000 C CNN
	1    1800 800 
	0    1    -1   0   
$EndComp
NoConn ~ 2300 7400
NoConn ~ 2100 7400
Text Label 2300 7350 1    60   ~ 0
ANTENNE
Text Label 2100 7350 1    60   ~ 0
RESET
Text Label 1900 7350 1    60   ~ 0
TXD
Text Label 1800 7350 1    60   ~ 0
GND
Text Label 2550 1600 0    60   ~ 0
+3V3F
Text Label 2550 1700 0    60   ~ 0
MICRO
Text Label 2550 1800 0    60   ~ 0
GND
Text Label 900  1600 0    60   ~ 0
+12V
Text Label 950  1950 0    60   ~ 0
+5V
Text Label 950  2250 0    60   ~ 0
GND
Text Label 1700 1000 3    60   ~ 0
+12VE
Text Label 1900 1000 3    60   ~ 0
GND
Text Label 6850 5400 2    60   ~ 0
GND
Text Label 6850 5300 2    60   ~ 0
Data
Text Label 6850 5200 2    60   ~ 0
+3V3
Text Label 6300 7200 1    60   ~ 0
+3V3
Text Label 6200 7200 1    60   ~ 0
SDA
Text Label 6100 7200 1    60   ~ 0
SCL
Text Label 6000 7200 1    60   ~ 0
NC
Text Label 5900 7200 1    60   ~ 0
GND
Text Label 3900 7150 2    60   ~ 0
+3V3_E
Text Label 3900 7250 2    60   ~ 0
GND_E
Text Label 3900 7050 2    60   ~ 0
SCL_E
Text Label 3900 6950 2    60   ~ 0
SDA_E
$Comp
L CP C7
U 1 1 577D2316
P 9800 1500
F 0 "C7" H 9600 1600 50  0000 L CNN
F 1 "1000µF" H 9550 1400 50  0000 L CNN
F 2 "Capacitors_ThroughHole:C_Rect_L7_W4.5_P5" H 9838 1350 50  0001 C CNN
F 3 "" H 9800 1500 50  0000 C CNN
	1    9800 1500
	1    0    0    -1  
$EndComp
$Comp
L CP C8
U 1 1 577D468F
P 1750 2550
F 0 "C8" V 1800 2400 50  0000 L CNN
F 1 "1500µF" V 1700 2200 50  0000 L CNN
F 2 "Capacitors_ThroughHole:C_Rect_L7_W4.5_P5" H 1788 2400 50  0001 C CNN
F 3 "" H 1750 2550 50  0000 C CNN
	1    1750 2550
	0    -1   -1   0   
$EndComp
Text Label 4300 4800 0    60   ~ 0
Test
Text Label 4300 5000 0    60   ~ 0
TX_GSM
Text Label 4300 5100 0    60   ~ 0
RX_GSM
Text Label 4300 4900 0    60   ~ 0
Wakeup_GSM
Text Label 4300 5300 0    60   ~ 0
Data_DHT
Text Label 4300 5400 0    60   ~ 0
Selection
Text Label 3000 4800 2    60   ~ 0
Mes.12V
Text Label 3000 4900 2    60   ~ 0
ClavierDir.
NoConn ~ 1800 1000
$Comp
L CONN_01X01 P11
U 1 1 577ABECC
P 750 2250
F 0 "P11" H 750 2350 50  0000 C CNN
F 1 "GND" V 850 2250 50  0000 C CNN
F 2 "Socket_Strips:Socket_Strip_Straight_1x01" H 750 2250 50  0001 C CNN
F 3 "" H 750 2250 50  0000 C CNN
	1    750  2250
	-1   0    0    1   
$EndComp
$Comp
L CONN_01X01 P10
U 1 1 577B3817
P 750 1950
F 0 "P10" H 750 2050 50  0000 C CNN
F 1 "+5V" V 850 1950 50  0000 C CNN
F 2 "Socket_Strips:Socket_Strip_Straight_1x01" H 750 1950 50  0001 C CNN
F 3 "" H 750 1950 50  0000 C CNN
	1    750  1950
	-1   0    0    1   
$EndComp
$Comp
L CONN_01X01 P9
U 1 1 577B38C7
P 750 1650
F 0 "P9" H 750 1750 50  0000 C CNN
F 1 "+12V" V 850 1650 50  0000 C CNN
F 2 "Socket_Strips:Socket_Strip_Straight_1x01" H 750 1650 50  0001 C CNN
F 3 "" H 750 1650 50  0000 C CNN
	1    750  1650
	-1   0    0    1   
$EndComp
$Comp
L CONN_01X16 P13
U 1 1 577E3B3D
P 3400 4850
F 0 "P13" H 3400 5700 50  0000 C CNN
F 1 "CONN_01X16" V 3500 4850 50  0000 C CNN
F 2 "Socket_Strips:Socket_Strip_Straight_1x16" H 3400 4850 50  0001 C CNN
F 3 "Feather M0L" H 3700 5500 50  0000 C CNN
	1    3400 4850
	1    0    0    -1  
$EndComp
$Comp
L CONN_01X12 P12
U 1 1 577E3BE4
P 3900 5050
F 0 "P12" H 3900 5700 50  0000 C CNN
F 1 "CONN_01X12" V 4000 5050 50  0000 C CNN
F 2 "Socket_Strips:Socket_Strip_Straight_1x12" H 3900 5050 50  0001 C CNN
F 3 "Feather M0R" H 3950 4350 50  0000 C CNN
	1    3900 5050
	-1   0    0    1   
$EndComp
Text Label 4100 5600 0    60   ~ 0
SDA
Text Label 4100 5500 0    60   ~ 0
SLC
Text Label 4100 5400 0    60   ~ 0
05
Text Label 4100 5300 0    60   ~ 0
06
Text Label 4100 5200 0    60   ~ 0
09
Text Label 4100 5100 0    60   ~ 0
10
Text Label 4100 5000 0    60   ~ 0
11
Text Label 4100 4900 0    60   ~ 0
12
Text Label 4100 4800 0    60   ~ 0
13
Text Label 4100 4700 0    60   ~ 0
USB
Text Label 4100 4600 0    60   ~ 0
EN
Text Label 4100 4500 0    60   ~ 0
BAT
Text Label 3200 5600 2    60   ~ 0
GND
Text Label 3200 5500 2    60   ~ 0
TX
Text Label 3200 5400 2    60   ~ 0
RX
Text Label 3200 5300 2    60   ~ 0
MISO
Text Label 3200 5200 2    60   ~ 0
MOSI
Text Label 3200 5100 2    60   ~ 0
SCK
Text Label 3200 5000 2    60   ~ 0
A5
Text Label 3200 4900 2    60   ~ 0
A4
Text Label 3200 4800 2    60   ~ 0
A3
Text Label 3200 4700 2    60   ~ 0
A2
Text Label 3200 4600 2    60   ~ 0
A1
Text Label 3200 4500 2    60   ~ 0
A0
Text Label 3200 4400 2    60   ~ 0
GND
Text Label 3200 4300 2    60   ~ 0
ARf
Text Label 3200 4200 2    60   ~ 0
3V
NoConn ~ 3200 5400
NoConn ~ 3200 5500
$Comp
L CP C9
U 1 1 579A4A9C
P 3800 1950
F 0 "C9" H 3825 2050 50  0000 L CNN
F 1 "100µF" H 3825 1850 50  0000 L CNN
F 2 "Capacitors_ThroughHole:C_Rect_L7_W4.5_P5" H 3838 1800 50  0001 C CNN
F 3 "" H 3800 1950 50  0000 C CNN
	1    3800 1950
	1    0    0    -1  
$EndComp
$Comp
L R R19
U 1 1 5797F5A0
P 6050 4950
F 0 "R19" V 6130 4950 50  0000 C CNN
F 1 "10K" V 6050 4950 50  0000 C CNN
F 2 "Empreintes:Resistor_Horizontal_RM10mm" V 5980 4950 50  0001 C CNN
F 3 "" H 6050 4950 50  0000 C CNN
	1    6050 4950
	0    1    1    0   
$EndComp
$Comp
L R R17
U 1 1 579C1A2A
P 2400 5400
F 0 "R17" V 2480 5400 50  0000 C CNN
F 1 "100k" V 2400 5400 50  0000 C CNN
F 2 "Empreintes:Resistor_Horizontal_RM10mm" V 2330 5400 50  0001 C CNN
F 3 "" H 2400 5400 50  0000 C CNN
	1    2400 5400
	1    0    0    -1  
$EndComp
$Comp
L R R18
U 1 1 579C202A
P 1600 6100
F 0 "R18" V 1680 6100 50  0000 C CNN
F 1 "47k" V 1600 6100 50  0000 C CNN
F 2 "Empreintes:Resistor_Horizontal_RM10mm" V 1530 6100 50  0001 C CNN
F 3 "" H 1600 6100 50  0000 C CNN
	1    1600 6100
	-1   0    0    1   
$EndComp
$Comp
L CP C10
U 1 1 579C7E27
P 2550 6900
F 0 "C10" H 2575 7000 50  0000 L CNN
F 1 "100µF" H 2575 6800 50  0000 L CNN
F 2 "Capacitors_ThroughHole:C_Rect_L7_W4.5_P5" H 2588 6750 50  0001 C CNN
F 3 "" H 2550 6900 50  0000 C CNN
	1    2550 6900
	1    0    0    -1  
$EndComp
NoConn ~ 1150 7400
$Comp
L R R22
U 1 1 579FFA87
P 2250 6000
F 0 "R22" V 2330 6000 50  0000 C CNN
F 1 "1k" V 2250 6000 50  0000 C CNN
F 2 "Empreintes:Resistor_Horizontal_RM10mm" V 2180 6000 50  0001 C CNN
F 3 "" H 2250 6000 50  0000 C CNN
	1    2250 6000
	0    1    1    0   
$EndComp
$Comp
L R R21
U 1 1 57A00744
P 2250 6200
F 0 "R21" V 2330 6200 50  0000 C CNN
F 1 "1k" V 2250 6200 50  0000 C CNN
F 2 "Empreintes:Resistor_Horizontal_RM10mm" V 2180 6200 50  0001 C CNN
F 3 "" H 2250 6200 50  0000 C CNN
	1    2250 6200
	0    1    1    0   
$EndComp
$Comp
L R R20
U 1 1 57A00B41
P 2700 5800
F 0 "R20" V 2780 5800 50  0000 C CNN
F 1 "5.6k" V 2700 5800 50  0000 C CNN
F 2 "Empreintes:Resistor_Horizontal_RM10mm" V 2630 5800 50  0001 C CNN
F 3 "" H 2700 5800 50  0000 C CNN
	1    2700 5800
	-1   0    0    1   
$EndComp
$Comp
L D D1
U 1 1 57A08B30
P 1700 1350
F 0 "D1" H 1700 1450 50  0000 C CNN
F 1 "1N4007" H 1700 1250 50  0000 C CNN
F 2 "Diodes_ThroughHole:D_DO-35_SOD27_P10.16mm_Horizontal" H 1700 1350 50  0001 C CNN
F 3 "" H 1700 1350 50  0000 C CNN
	1    1700 1350
	0    -1   -1   0   
$EndComp
$Comp
L CONN_01X01 P14
U 1 1 57A1BFDE
P 750 2600
F 0 "P14" H 750 2700 50  0000 C CNN
F 1 "GND" V 850 2600 50  0000 C CNN
F 2 "Socket_Strips:Socket_Strip_Straight_1x01" H 750 2600 50  0001 C CNN
F 3 "" H 750 2600 50  0000 C CNN
	1    750  2600
	-1   0    0    1   
$EndComp
Text Label 3000 4600 2    60   ~ 0
Signal_US
NoConn ~ 3200 4700
$Comp
L LP3966 U2
U 1 1 57A9B078
P 1400 5400
F 0 "U2" H 950 5050 50  0000 L CNN
F 1 "MIC29302 #" H 1200 5350 50  0000 L CNN
F 2 "VorlagenModul-cache-orig-2:Pentawatt_Neutral_Staggered-Typ2_Horizontal_TO220-5-T05E" H 1400 5400 50  0001 C CNN
F 3 "" H 1400 5400 50  0000 C CNN
	1    1400 5400
	1    0    0    -1  
$EndComp
Text Label 2200 7350 1    60   ~ 0
VCC_4,7V
Text Label 3200 4100 2    60   ~ 0
Reset
NoConn ~ 3200 4100
$Comp
L Jumper_NO_Small JP4
U 1 1 57ADF06C
P 4300 6750
F 0 "JP4" H 4300 6830 50  0000 C CNN
F 1 "Jumper_NO_Small" H 4310 6690 50  0001 C CNN
F 2 "Measurement_Points:Test_Point_2Pads" H 4300 6750 50  0001 C CNN
F 3 "" H 4300 6750 50  0000 C CNN
	1    4300 6750
	1    0    0    -1  
$EndComp
Connection ~ 8650 1700
Connection ~ 9350 1600
Wire Wire Line
	9300 1600 9500 1600
Wire Wire Line
	8600 1700 8700 1700
Wire Wire Line
	8200 1700 8300 1700
Connection ~ 7850 1600
Wire Wire Line
	7900 1600 7900 1700
Wire Wire Line
	7800 1600 7900 1600
Connection ~ 7150 1700
Connection ~ 5500 850 
Wire Wire Line
	7050 850  7050 1500
Wire Wire Line
	7050 1500 7200 1500
Wire Wire Line
	7100 1700 7200 1700
Wire Wire Line
	6700 1700 6800 1700
Connection ~ 6350 1600
Wire Wire Line
	6400 1600 6400 1700
Connection ~ 4150 850 
Wire Wire Line
	3350 850  8550 850 
Wire Wire Line
	5500 1500 5700 1500
Wire Wire Line
	5500 850  5500 1500
Wire Wire Line
	6350 950  6350 1600
Wire Wire Line
	6300 1600 6400 1600
Connection ~ 5250 1600
Connection ~ 5650 1700
Wire Wire Line
	5600 1700 5700 1700
Connection ~ 5250 1700
Wire Wire Line
	5250 1700 5300 1700
Wire Wire Line
	5200 1600 5250 1600
Connection ~ 4850 1600
Wire Wire Line
	4800 1600 4900 1600
Connection ~ 4050 1700
Connection ~ 4150 1500
Wire Wire Line
	4200 1500 4150 1500
Wire Wire Line
	3500 1700 4200 1700
Wire Wire Line
	8550 850  8550 1500
Wire Wire Line
	8550 1500 8700 1500
Connection ~ 7050 850 
Wire Wire Line
	9300 1250 9350 1250
Wire Wire Line
	9350 1250 9350 1600
Wire Wire Line
	9000 1250 8650 1250
Wire Wire Line
	8650 1250 8650 1700
Wire Wire Line
	7850 1600 7850 1250
Wire Wire Line
	7850 1250 7800 1250
Wire Wire Line
	7500 1250 7150 1250
Wire Wire Line
	7150 1250 7150 1700
Wire Wire Line
	6300 1250 6350 1250
Connection ~ 6350 1250
Wire Wire Line
	6000 1250 5650 1250
Wire Wire Line
	5650 1250 5650 1700
Wire Wire Line
	4850 1600 4850 1250
Wire Wire Line
	4850 1250 4800 1250
Wire Wire Line
	4500 1250 4050 1250
Wire Wire Line
	4050 1250 4050 1700
Wire Wire Line
	6350 950  6300 950 
Wire Wire Line
	6000 950  5250 950 
Wire Wire Line
	3200 1700 3200 1700
Wire Wire Line
	5250 2250 5250 2150
Connection ~ 4400 2250
Connection ~ 5250 2250
Connection ~ 8900 2250
Connection ~ 7400 2250
Connection ~ 5900 2250
Connection ~ 4150 2250
Wire Wire Line
	2850 700  10300 700 
Connection ~ 4400 700 
Connection ~ 5900 700 
Connection ~ 7400 700 
Connection ~ 8900 700 
Wire Wire Line
	2550 1700 2900 1700
Wire Wire Line
	2850 1600 2550 1600
Wire Wire Line
	2850 700  2850 1600
Wire Wire Line
	2550 1800 2850 1800
Wire Wire Line
	2850 2250 2850 1800
Wire Wire Line
	950  2250 10050 2250
Wire Wire Line
	9100 4000 9300 4000
Wire Wire Line
	9200 4300 8400 4300
Wire Wire Line
	9200 2250 9200 4300
Connection ~ 9200 4000
Wire Wire Line
	8400 3700 9200 3700
Connection ~ 9200 3700
Wire Wire Line
	7350 4000 7350 4550
Wire Wire Line
	6200 4550 8450 4550
Wire Wire Line
	6200 3250 6200 4550
Wire Wire Line
	8450 4550 8450 4300
Connection ~ 8450 4300
Wire Wire Line
	8500 3300 10300 3300
Wire Wire Line
	7800 4300 7800 4450
Wire Wire Line
	10300 4450 7800 4450
Connection ~ 10300 3300
Wire Wire Line
	7800 3300 7800 3700
Wire Wire Line
	7700 3300 8200 3300
Wire Wire Line
	6550 3300 6550 4000
Wire Wire Line
	7350 3900 8500 3900
Wire Wire Line
	8500 3900 8500 4000
Wire Wire Line
	5400 5400 5400 4700
Wire Wire Line
	5400 4700 9900 4700
Wire Wire Line
	4100 5300 6850 5300
Wire Wire Line
	5900 5400 5900 7200
Wire Wire Line
	2750 2850 10300 2850
Wire Wire Line
	2750 2850 2750 4200
Wire Wire Line
	5750 2850 5750 6600
Connection ~ 5750 2850
Wire Wire Line
	9500 1600 9500 2700
Wire Wire Line
	2300 4600 3200 4600
Wire Wire Line
	2300 2700 2300 4600
Wire Wire Line
	4400 3800 4400 4700
Wire Wire Line
	600  3800 4400 3800
Wire Wire Line
	1800 3250 6200 3250
Wire Wire Line
	4100 5100 5100 5100
Wire Wire Line
	4100 4800 4750 4800
Wire Wire Line
	4900 7250 4900 6600
Wire Wire Line
	6300 6600 6300 7200
Wire Wire Line
	5000 6450 5000 7500
Connection ~ 5900 6450
Wire Wire Line
	4800 5500 4800 7000
Wire Wire Line
	4700 5600 4700 6750
Wire Wire Line
	4400 6750 6200 6750
Connection ~ 4700 6750
Wire Wire Line
	6100 6900 6100 7200
Connection ~ 4800 6900
Connection ~ 5750 6600
Wire Wire Line
	1800 3250 1800 3400
Wire Wire Line
	1800 3700 1800 4100
Wire Wire Line
	1800 4400 1800 4500
Wire Wire Line
	1800 3950 2150 3950
Wire Wire Line
	2150 3950 2150 4800
Wire Wire Line
	2150 4800 3200 4800
Connection ~ 1800 3950
Wire Wire Line
	9000 3100 9000 3300
Wire Wire Line
	2450 3100 9000 3100
Connection ~ 9000 3300
Wire Wire Line
	3200 4900 2450 4900
Wire Wire Line
	2450 4900 2450 3100
Wire Wire Line
	1900 6000 1900 7400
Wire Wire Line
	2000 6200 2000 7400
Connection ~ 1900 2250
Wire Wire Line
	950  1650 1700 1650
Wire Wire Line
	950  1950 1300 1950
Wire Wire Line
	1300 1950 1300 3800
Connection ~ 1500 1650
Wire Wire Line
	1800 4500 1500 4500
Connection ~ 1300 3800
Wire Wire Line
	1800 6450 1800 7400
Wire Wire Line
	4100 5400 5400 5400
Wire Wire Line
	2850 5600 2850 7050
Wire Wire Line
	4150 850  4150 1850
Wire Wire Line
	3050 850  2850 850 
Connection ~ 2850 850 
Wire Wire Line
	4150 2150 4150 2250
Wire Wire Line
	4400 1300 4400 700 
Wire Wire Line
	5900 1900 5900 2250
Wire Wire Line
	7400 1300 7400 700 
Wire Wire Line
	8900 1300 8900 700 
Wire Wire Line
	1900 1000 1900 2250
Connection ~ 2850 2250
Wire Wire Line
	10300 3200 10300 4450
Wire Wire Line
	9500 2700 2300 2700
Connection ~ 9200 2250
Wire Wire Line
	1600 2550 1300 2550
Connection ~ 1300 2550
Wire Wire Line
	1900 2550 2050 2550
Wire Wire Line
	2050 2550 2050 2250
Connection ~ 2050 2250
Wire Wire Line
	6700 3300 6550 3300
Wire Wire Line
	7000 3300 7400 3300
Wire Wire Line
	7350 3300 7350 3900
Connection ~ 7350 3300
Connection ~ 7800 3300
Connection ~ 7350 4550
Wire Wire Line
	6850 5200 5750 5200
Connection ~ 5750 5200
Wire Wire Line
	5900 5400 6850 5400
Wire Wire Line
	4900 6600 6300 6600
Wire Wire Line
	9900 4700 9900 4000
Wire Wire Line
	8900 1900 8900 2250
Wire Wire Line
	5250 950  5250 1850
Wire Wire Line
	7400 1900 7400 2250
Wire Wire Line
	4400 1900 4400 2250
Wire Wire Line
	2700 5600 3200 5600
Connection ~ 2850 6450
Wire Wire Line
	4700 5600 4100 5600
Wire Wire Line
	4100 5500 4800 5500
Wire Wire Line
	4800 6900 6100 6900
Wire Wire Line
	2750 4200 3200 4200
Wire Wire Line
	3200 4400 2600 4400
Wire Wire Line
	2600 4400 2600 3250
Connection ~ 2600 3250
Wire Wire Line
	4400 4700 4100 4700
Wire Wire Line
	4750 4800 4750 4350
Wire Wire Line
	1400 6450 5900 6450
Connection ~ 5000 6450
Wire Wire Line
	5250 6350 600  6350
Wire Wire Line
	5250 4900 5250 6350
Wire Wire Line
	5100 6200 5100 5100
Wire Wire Line
	4100 5000 4950 5000
Wire Wire Line
	4950 5000 4950 6000
Wire Wire Line
	3800 850  3800 1800
Connection ~ 3800 850 
Wire Wire Line
	3800 2100 3800 2250
Connection ~ 3800 2250
Wire Wire Line
	5900 4950 5750 4950
Connection ~ 5750 4950
Wire Wire Line
	6200 4950 6350 4950
Wire Wire Line
	6350 4950 6350 5300
Connection ~ 6350 5300
Connection ~ 1800 6450
Wire Wire Line
	2200 5100 2550 5100
Wire Wire Line
	2400 5250 2400 5100
Connection ~ 2400 5100
Wire Wire Line
	1600 5850 2400 5850
Wire Wire Line
	2200 5300 2200 5850
Connection ~ 2200 5850
Wire Wire Line
	600  3800 600  5100
Wire Wire Line
	1600 6250 1600 6450
Connection ~ 1600 6450
Wire Wire Line
	6550 4000 6750 4000
Wire Wire Line
	2100 6000 1900 6000
Wire Wire Line
	4950 6000 2400 6000
Wire Wire Line
	2400 6200 5100 6200
Wire Wire Line
	6200 6750 6200 7200
Wire Wire Line
	5900 700  5900 1300
Wire Wire Line
	1700 1000 1700 1200
Wire Wire Line
	1500 4500 1500 1650
Wire Wire Line
	1700 1650 1700 1500
Wire Wire Line
	950  2600 1000 2600
Wire Wire Line
	1000 2600 1000 2250
Connection ~ 1000 2250
Wire Wire Line
	2550 5100 2550 6750
Wire Wire Line
	2400 5850 2400 5550
Wire Wire Line
	2200 7400 2200 6650
Wire Wire Line
	2200 6650 2550 6650
Connection ~ 2550 6650
Wire Wire Line
	2700 6200 2700 5950
Connection ~ 2700 6200
Wire Wire Line
	2700 5650 2700 5600
Wire Wire Line
	1600 5850 1600 5950
Wire Wire Line
	2850 7050 2550 7050
Wire Wire Line
	1400 6450 1400 6100
Wire Wire Line
	3600 6950 4000 6950
Wire Wire Line
	4000 6950 4000 6750
Wire Wire Line
	4000 6750 4200 6750
Wire Wire Line
	3600 7050 4100 7050
Wire Wire Line
	4100 7050 4100 7000
Wire Wire Line
	4100 7000 4200 7000
Wire Wire Line
	3600 7150 4100 7150
Wire Wire Line
	4100 7150 4100 7250
Wire Wire Line
	4100 7250 4200 7250
Wire Wire Line
	3600 7250 4000 7250
Wire Wire Line
	4000 7250 4000 7500
Wire Wire Line
	4000 7500 4200 7500
Wire Wire Line
	4800 7000 4400 7000
Wire Wire Line
	4400 7250 4900 7250
Wire Wire Line
	5000 7500 4400 7500
$Comp
L Jumper_NO_Small JP3
U 1 1 57AE193D
P 4300 7000
F 0 "JP3" H 4300 7080 50  0000 C CNN
F 1 "Jumper_NO_Small" H 4310 6940 50  0001 C CNN
F 2 "Measurement_Points:Test_Point_2Pads" H 4300 7000 50  0001 C CNN
F 3 "" H 4300 7000 50  0000 C CNN
	1    4300 7000
	1    0    0    -1  
$EndComp
$Comp
L Jumper_NO_Small JP2
U 1 1 57AE1B24
P 4300 7250
F 0 "JP2" H 4300 7330 50  0000 C CNN
F 1 "Jumper_NO_Small" H 4310 7190 50  0001 C CNN
F 2 "Measurement_Points:Test_Point_2Pads" H 4300 7250 50  0001 C CNN
F 3 "" H 4300 7250 50  0000 C CNN
	1    4300 7250
	1    0    0    -1  
$EndComp
$Comp
L Jumper_NO_Small JP1
U 1 1 57AE1BFC
P 4300 7500
F 0 "JP1" H 4300 7580 50  0000 C CNN
F 1 "Jumper_NO_Small" H 4310 7440 50  0001 C CNN
F 2 "Measurement_Points:Test_Point_2Pads" H 4300 7500 50  0001 C CNN
F 3 "" H 4300 7500 50  0000 C CNN
	1    4300 7500
	1    0    0    -1  
$EndComp
$Comp
L R R23
U 1 1 57C19515
P 600 5750
F 0 "R23" V 680 5750 50  0000 C CNN
F 1 "1k" V 600 5750 50  0000 C CNN
F 2 "Empreintes:Resistor_Horizontal_RM10mm" V 530 5750 50  0001 C CNN
F 3 "" H 600 5750 50  0000 C CNN
	1    600  5750
	-1   0    0    1   
$EndComp
Wire Wire Line
	600  5300 600  5600
Wire Wire Line
	600  6350 600  5900
$Comp
L CONN_01X02 P16
U 1 1 57D31F6F
P 10150 5300
F 0 "P16" H 10150 5450 50  0000 C CNN
F 1 "Entrée LiPo" V 10250 5300 50  0000 C CNN
F 2 "Connectors_JST:JST_PH_S2B-PH-K_02x2.00mm_Angled" H 10150 5300 50  0001 C CNN
F 3 "" H 10150 5300 50  0000 C CNN
	1    10150 5300
	0    -1   -1   0   
$EndComp
Wire Wire Line
	10100 5500 10100 5650
Wire Wire Line
	10100 5650 6350 5650
Wire Wire Line
	6350 5650 6350 5400
Connection ~ 6350 5400
Wire Wire Line
	4100 4500 5550 4500
Wire Wire Line
	5550 4500 5550 6000
Wire Wire Line
	10200 5500 10200 6000
Wire Wire Line
	10200 6000 9900 6000
Wire Wire Line
	5550 6000 8900 6000
$Comp
L SPST SW6
U 1 1 5887998E
P 9400 6000
F 0 "SW6" H 9400 6100 50  0000 C CNN
F 1 "A/M" H 9400 5900 50  0000 C CNN
F 2 "Buttons_Switches_ThroughHole:SW_DIP_x1_W7.62mm_Slide" H 9400 6000 50  0001 C CNN
F 3 "" H 9400 6000 50  0000 C CNN
	1    9400 6000
	1    0    0    -1  
$EndComp
Wire Wire Line
	4100 4900 5250 4900
NoConn ~ 4100 5200
Text Label 4300 5200 0    60   ~ 0
A7_VLiPol
$Comp
L R R24
U 1 1 58988B8D
P 10300 2550
F 0 "R24" V 10380 2550 50  0000 C CNN
F 1 "100" V 10300 2550 50  0000 C CNN
F 2 "Empreintes:Resistor_Horizontal_RM10mm" V 10230 2550 50  0001 C CNN
F 3 "" H 10300 2550 50  0000 C CNN
	1    10300 2550
	1    0    0    -1  
$EndComp
$Comp
L C C11
U 1 1 58989090
P 10050 1500
F 0 "C11" H 9900 1600 50  0000 L CNN
F 1 "100nF" H 9800 1400 50  0000 L CNN
F 2 "Capacitors_ThroughHole:C_Rect_L7.0mm_W2.5mm_P5.00mm" H 10088 1350 50  0001 C CNN
F 3 "" H 10050 1500 50  0000 C CNN
	1    10050 1500
	-1   0    0    1   
$EndComp
Wire Wire Line
	10300 2700 10300 2900
Connection ~ 10300 2850
Wire Wire Line
	10300 700  10300 2400
Wire Wire Line
	10050 2250 10050 1650
Wire Wire Line
	10050 1350 10050 700 
Connection ~ 10050 700 
Wire Wire Line
	9800 1350 9800 700 
Connection ~ 9800 700 
Wire Wire Line
	9800 1650 9800 2250
Connection ~ 9800 2250
$Comp
L C C12
U 1 1 589964F8
P 3550 1950
F 0 "C12" H 3575 2050 50  0000 L CNN
F 1 "100nF" H 3575 1850 50  0000 L CNN
F 2 "Capacitors_ThroughHole:C_Rect_L7.0mm_W2.5mm_P5.00mm" H 3588 1800 50  0001 C CNN
F 3 "" H 3550 1950 50  0000 C CNN
	1    3550 1950
	-1   0    0    1   
$EndComp
Wire Wire Line
	3550 850  3550 1800
Connection ~ 3550 850 
Wire Wire Line
	3550 2100 3550 2250
Connection ~ 3550 2250
Connection ~ 2850 5600
Wire Notes Line
	500  7750 2950 7750
Wire Notes Line
	2950 7750 2950 4950
Wire Notes Line
	2950 4950 500  4950
Wire Notes Line
	500  4950 500  7750
Text Label 800  6850 0    60   ~ 0
Option_SMS
Wire Wire Line
	2100 6200 2000 6200
$EndSCHEMATC
