G04 #@! TF.FileFunction,Other,User*
%FSLAX46Y46*%
G04 Gerber Fmt 4.6, Leading zero omitted, Abs format (unit mm)*
G04 Created by KiCad (PCBNEW 4.0.2-stable) date 01/04/2017 15:11:21*
%MOMM*%
G01*
G04 APERTURE LIST*
%ADD10C,0.100000*%
%ADD11C,0.150000*%
%ADD12C,0.300000*%
%ADD13C,0.400000*%
G04 APERTURE END LIST*
D10*
D11*
X177002200Y-166007200D02*
X177002200Y-198007200D01*
X285002200Y-198007200D01*
X285002200Y-166007200D01*
X177002200Y-166007200D01*
D10*
D11*
X10000000Y-10000000D02*
X10000000Y-200007200D01*
X287002200Y-200007200D01*
X287002200Y-10000000D01*
X10000000Y-10000000D01*
D10*
D11*
X12000000Y-12000000D02*
X12000000Y-198007200D01*
X285002200Y-198007200D01*
X285002200Y-12000000D01*
X12000000Y-12000000D01*
D10*
D11*
X60000000Y-12000000D02*
X60000000Y-10000000D01*
D10*
D11*
X110000000Y-12000000D02*
X110000000Y-10000000D01*
D10*
D11*
X160000000Y-12000000D02*
X160000000Y-10000000D01*
D10*
D11*
X210000000Y-12000000D02*
X210000000Y-10000000D01*
D10*
D11*
X260000000Y-12000000D02*
X260000000Y-10000000D01*
D10*
D11*
X35990476Y-11588095D02*
X35247619Y-11588095D01*
X35619048Y-11588095D02*
X35619048Y-10288095D01*
X35495238Y-10473810D01*
X35371429Y-10597619D01*
X35247619Y-10659524D01*
D10*
D11*
X85247619Y-10411905D02*
X85309524Y-10350000D01*
X85433333Y-10288095D01*
X85742857Y-10288095D01*
X85866667Y-10350000D01*
X85928571Y-10411905D01*
X85990476Y-10535714D01*
X85990476Y-10659524D01*
X85928571Y-10845238D01*
X85185714Y-11588095D01*
X85990476Y-11588095D01*
D10*
D11*
X135185714Y-10288095D02*
X135990476Y-10288095D01*
X135557143Y-10783333D01*
X135742857Y-10783333D01*
X135866667Y-10845238D01*
X135928571Y-10907143D01*
X135990476Y-11030952D01*
X135990476Y-11340476D01*
X135928571Y-11464286D01*
X135866667Y-11526190D01*
X135742857Y-11588095D01*
X135371429Y-11588095D01*
X135247619Y-11526190D01*
X135185714Y-11464286D01*
D10*
D11*
X185866667Y-10721429D02*
X185866667Y-11588095D01*
X185557143Y-10226190D02*
X185247619Y-11154762D01*
X186052381Y-11154762D01*
D10*
D11*
X235928571Y-10288095D02*
X235309524Y-10288095D01*
X235247619Y-10907143D01*
X235309524Y-10845238D01*
X235433333Y-10783333D01*
X235742857Y-10783333D01*
X235866667Y-10845238D01*
X235928571Y-10907143D01*
X235990476Y-11030952D01*
X235990476Y-11340476D01*
X235928571Y-11464286D01*
X235866667Y-11526190D01*
X235742857Y-11588095D01*
X235433333Y-11588095D01*
X235309524Y-11526190D01*
X235247619Y-11464286D01*
D10*
D11*
X285866667Y-10288095D02*
X285619048Y-10288095D01*
X285495238Y-10350000D01*
X285433333Y-10411905D01*
X285309524Y-10597619D01*
X285247619Y-10845238D01*
X285247619Y-11340476D01*
X285309524Y-11464286D01*
X285371429Y-11526190D01*
X285495238Y-11588095D01*
X285742857Y-11588095D01*
X285866667Y-11526190D01*
X285928571Y-11464286D01*
X285990476Y-11340476D01*
X285990476Y-11030952D01*
X285928571Y-10907143D01*
X285866667Y-10845238D01*
X285742857Y-10783333D01*
X285495238Y-10783333D01*
X285371429Y-10845238D01*
X285309524Y-10907143D01*
X285247619Y-11030952D01*
D10*
D11*
X60000000Y-198007200D02*
X60000000Y-200007200D01*
D10*
D11*
X110000000Y-198007200D02*
X110000000Y-200007200D01*
D10*
D11*
X160000000Y-198007200D02*
X160000000Y-200007200D01*
D10*
D11*
X210000000Y-198007200D02*
X210000000Y-200007200D01*
D10*
D11*
X260000000Y-198007200D02*
X260000000Y-200007200D01*
D10*
D11*
X35990476Y-199595295D02*
X35247619Y-199595295D01*
X35619048Y-199595295D02*
X35619048Y-198295295D01*
X35495238Y-198481010D01*
X35371429Y-198604819D01*
X35247619Y-198666724D01*
D10*
D11*
X85247619Y-198419105D02*
X85309524Y-198357200D01*
X85433333Y-198295295D01*
X85742857Y-198295295D01*
X85866667Y-198357200D01*
X85928571Y-198419105D01*
X85990476Y-198542914D01*
X85990476Y-198666724D01*
X85928571Y-198852438D01*
X85185714Y-199595295D01*
X85990476Y-199595295D01*
D10*
D11*
X135185714Y-198295295D02*
X135990476Y-198295295D01*
X135557143Y-198790533D01*
X135742857Y-198790533D01*
X135866667Y-198852438D01*
X135928571Y-198914343D01*
X135990476Y-199038152D01*
X135990476Y-199347676D01*
X135928571Y-199471486D01*
X135866667Y-199533390D01*
X135742857Y-199595295D01*
X135371429Y-199595295D01*
X135247619Y-199533390D01*
X135185714Y-199471486D01*
D10*
D11*
X185866667Y-198728629D02*
X185866667Y-199595295D01*
X185557143Y-198233390D02*
X185247619Y-199161962D01*
X186052381Y-199161962D01*
D10*
D11*
X235928571Y-198295295D02*
X235309524Y-198295295D01*
X235247619Y-198914343D01*
X235309524Y-198852438D01*
X235433333Y-198790533D01*
X235742857Y-198790533D01*
X235866667Y-198852438D01*
X235928571Y-198914343D01*
X235990476Y-199038152D01*
X235990476Y-199347676D01*
X235928571Y-199471486D01*
X235866667Y-199533390D01*
X235742857Y-199595295D01*
X235433333Y-199595295D01*
X235309524Y-199533390D01*
X235247619Y-199471486D01*
D10*
D11*
X285866667Y-198295295D02*
X285619048Y-198295295D01*
X285495238Y-198357200D01*
X285433333Y-198419105D01*
X285309524Y-198604819D01*
X285247619Y-198852438D01*
X285247619Y-199347676D01*
X285309524Y-199471486D01*
X285371429Y-199533390D01*
X285495238Y-199595295D01*
X285742857Y-199595295D01*
X285866667Y-199533390D01*
X285928571Y-199471486D01*
X285990476Y-199347676D01*
X285990476Y-199038152D01*
X285928571Y-198914343D01*
X285866667Y-198852438D01*
X285742857Y-198790533D01*
X285495238Y-198790533D01*
X285371429Y-198852438D01*
X285309524Y-198914343D01*
X285247619Y-199038152D01*
D10*
D11*
X10000000Y-60000000D02*
X12000000Y-60000000D01*
D10*
D11*
X10000000Y-110000000D02*
X12000000Y-110000000D01*
D10*
D11*
X10000000Y-160000000D02*
X12000000Y-160000000D01*
D10*
D11*
X10690476Y-35216667D02*
X11309524Y-35216667D01*
X10566667Y-35588095D02*
X11000000Y-34288095D01*
X11433333Y-35588095D01*
D10*
D11*
X11092857Y-84907143D02*
X11278571Y-84969048D01*
X11340476Y-85030952D01*
X11402381Y-85154762D01*
X11402381Y-85340476D01*
X11340476Y-85464286D01*
X11278571Y-85526190D01*
X11154762Y-85588095D01*
X10659524Y-85588095D01*
X10659524Y-84288095D01*
X11092857Y-84288095D01*
X11216667Y-84350000D01*
X11278571Y-84411905D01*
X11340476Y-84535714D01*
X11340476Y-84659524D01*
X11278571Y-84783333D01*
X11216667Y-84845238D01*
X11092857Y-84907143D01*
X10659524Y-84907143D01*
D10*
D11*
X11402381Y-135464286D02*
X11340476Y-135526190D01*
X11154762Y-135588095D01*
X11030952Y-135588095D01*
X10845238Y-135526190D01*
X10721429Y-135402381D01*
X10659524Y-135278571D01*
X10597619Y-135030952D01*
X10597619Y-134845238D01*
X10659524Y-134597619D01*
X10721429Y-134473810D01*
X10845238Y-134350000D01*
X11030952Y-134288095D01*
X11154762Y-134288095D01*
X11340476Y-134350000D01*
X11402381Y-134411905D01*
D10*
D11*
X10659524Y-185588095D02*
X10659524Y-184288095D01*
X10969048Y-184288095D01*
X11154762Y-184350000D01*
X11278571Y-184473810D01*
X11340476Y-184597619D01*
X11402381Y-184845238D01*
X11402381Y-185030952D01*
X11340476Y-185278571D01*
X11278571Y-185402381D01*
X11154762Y-185526190D01*
X10969048Y-185588095D01*
X10659524Y-185588095D01*
D10*
D11*
X287002200Y-60000000D02*
X285002200Y-60000000D01*
D10*
D11*
X287002200Y-110000000D02*
X285002200Y-110000000D01*
D10*
D11*
X287002200Y-160000000D02*
X285002200Y-160000000D01*
D10*
D11*
X285692676Y-35216667D02*
X286311724Y-35216667D01*
X285568867Y-35588095D02*
X286002200Y-34288095D01*
X286435533Y-35588095D01*
D10*
D11*
X286095057Y-84907143D02*
X286280771Y-84969048D01*
X286342676Y-85030952D01*
X286404581Y-85154762D01*
X286404581Y-85340476D01*
X286342676Y-85464286D01*
X286280771Y-85526190D01*
X286156962Y-85588095D01*
X285661724Y-85588095D01*
X285661724Y-84288095D01*
X286095057Y-84288095D01*
X286218867Y-84350000D01*
X286280771Y-84411905D01*
X286342676Y-84535714D01*
X286342676Y-84659524D01*
X286280771Y-84783333D01*
X286218867Y-84845238D01*
X286095057Y-84907143D01*
X285661724Y-84907143D01*
D10*
D11*
X286404581Y-135464286D02*
X286342676Y-135526190D01*
X286156962Y-135588095D01*
X286033152Y-135588095D01*
X285847438Y-135526190D01*
X285723629Y-135402381D01*
X285661724Y-135278571D01*
X285599819Y-135030952D01*
X285599819Y-134845238D01*
X285661724Y-134597619D01*
X285723629Y-134473810D01*
X285847438Y-134350000D01*
X286033152Y-134288095D01*
X286156962Y-134288095D01*
X286342676Y-134350000D01*
X286404581Y-134411905D01*
D10*
D11*
X285661724Y-185588095D02*
X285661724Y-184288095D01*
X285971248Y-184288095D01*
X286156962Y-184350000D01*
X286280771Y-184473810D01*
X286342676Y-184597619D01*
X286404581Y-184845238D01*
X286404581Y-185030952D01*
X286342676Y-185278571D01*
X286280771Y-185402381D01*
X286156962Y-185526190D01*
X285971248Y-185588095D01*
X285661724Y-185588095D01*
D10*
D11*
X200359343Y-193785771D02*
X200359343Y-192285771D01*
X200716486Y-192285771D01*
X200930771Y-192357200D01*
X201073629Y-192500057D01*
X201145057Y-192642914D01*
X201216486Y-192928629D01*
X201216486Y-193142914D01*
X201145057Y-193428629D01*
X201073629Y-193571486D01*
X200930771Y-193714343D01*
X200716486Y-193785771D01*
X200359343Y-193785771D01*
X202502200Y-193785771D02*
X202502200Y-193000057D01*
X202430771Y-192857200D01*
X202287914Y-192785771D01*
X202002200Y-192785771D01*
X201859343Y-192857200D01*
X202502200Y-193714343D02*
X202359343Y-193785771D01*
X202002200Y-193785771D01*
X201859343Y-193714343D01*
X201787914Y-193571486D01*
X201787914Y-193428629D01*
X201859343Y-193285771D01*
X202002200Y-193214343D01*
X202359343Y-193214343D01*
X202502200Y-193142914D01*
X203002200Y-192785771D02*
X203573629Y-192785771D01*
X203216486Y-192285771D02*
X203216486Y-193571486D01*
X203287914Y-193714343D01*
X203430772Y-193785771D01*
X203573629Y-193785771D01*
X204645057Y-193714343D02*
X204502200Y-193785771D01*
X204216486Y-193785771D01*
X204073629Y-193714343D01*
X204002200Y-193571486D01*
X204002200Y-193000057D01*
X204073629Y-192857200D01*
X204216486Y-192785771D01*
X204502200Y-192785771D01*
X204645057Y-192857200D01*
X204716486Y-193000057D01*
X204716486Y-193142914D01*
X204002200Y-193285771D01*
X205359343Y-193642914D02*
X205430771Y-193714343D01*
X205359343Y-193785771D01*
X205287914Y-193714343D01*
X205359343Y-193642914D01*
X205359343Y-193785771D01*
X205359343Y-192857200D02*
X205430771Y-192928629D01*
X205359343Y-193000057D01*
X205287914Y-192928629D01*
X205359343Y-192857200D01*
X205359343Y-193000057D01*
D10*
D11*
X177002200Y-194507200D02*
X285002200Y-194507200D01*
D10*
D11*
X178359343Y-196585771D02*
X178359343Y-195085771D01*
X179216486Y-196585771D02*
X178573629Y-195728629D01*
X179216486Y-195085771D02*
X178359343Y-195942914D01*
X179859343Y-196585771D02*
X179859343Y-195585771D01*
X179859343Y-195085771D02*
X179787914Y-195157200D01*
X179859343Y-195228629D01*
X179930771Y-195157200D01*
X179859343Y-195085771D01*
X179859343Y-195228629D01*
X181430772Y-196442914D02*
X181359343Y-196514343D01*
X181145057Y-196585771D01*
X181002200Y-196585771D01*
X180787915Y-196514343D01*
X180645057Y-196371486D01*
X180573629Y-196228629D01*
X180502200Y-195942914D01*
X180502200Y-195728629D01*
X180573629Y-195442914D01*
X180645057Y-195300057D01*
X180787915Y-195157200D01*
X181002200Y-195085771D01*
X181145057Y-195085771D01*
X181359343Y-195157200D01*
X181430772Y-195228629D01*
X182716486Y-196585771D02*
X182716486Y-195800057D01*
X182645057Y-195657200D01*
X182502200Y-195585771D01*
X182216486Y-195585771D01*
X182073629Y-195657200D01*
X182716486Y-196514343D02*
X182573629Y-196585771D01*
X182216486Y-196585771D01*
X182073629Y-196514343D01*
X182002200Y-196371486D01*
X182002200Y-196228629D01*
X182073629Y-196085771D01*
X182216486Y-196014343D01*
X182573629Y-196014343D01*
X182716486Y-195942914D01*
X184073629Y-196585771D02*
X184073629Y-195085771D01*
X184073629Y-196514343D02*
X183930772Y-196585771D01*
X183645058Y-196585771D01*
X183502200Y-196514343D01*
X183430772Y-196442914D01*
X183359343Y-196300057D01*
X183359343Y-195871486D01*
X183430772Y-195728629D01*
X183502200Y-195657200D01*
X183645058Y-195585771D01*
X183930772Y-195585771D01*
X184073629Y-195657200D01*
X185930772Y-195800057D02*
X186430772Y-195800057D01*
X186645058Y-196585771D02*
X185930772Y-196585771D01*
X185930772Y-195085771D01*
X186645058Y-195085771D01*
X187287915Y-196442914D02*
X187359343Y-196514343D01*
X187287915Y-196585771D01*
X187216486Y-196514343D01*
X187287915Y-196442914D01*
X187287915Y-196585771D01*
X188002201Y-196585771D02*
X188002201Y-195085771D01*
X188359344Y-195085771D01*
X188573629Y-195157200D01*
X188716487Y-195300057D01*
X188787915Y-195442914D01*
X188859344Y-195728629D01*
X188859344Y-195942914D01*
X188787915Y-196228629D01*
X188716487Y-196371486D01*
X188573629Y-196514343D01*
X188359344Y-196585771D01*
X188002201Y-196585771D01*
X189502201Y-196442914D02*
X189573629Y-196514343D01*
X189502201Y-196585771D01*
X189430772Y-196514343D01*
X189502201Y-196442914D01*
X189502201Y-196585771D01*
X190145058Y-196157200D02*
X190859344Y-196157200D01*
X190002201Y-196585771D02*
X190502201Y-195085771D01*
X191002201Y-196585771D01*
X191502201Y-196442914D02*
X191573629Y-196514343D01*
X191502201Y-196585771D01*
X191430772Y-196514343D01*
X191502201Y-196442914D01*
X191502201Y-196585771D01*
X194502201Y-196585771D02*
X194502201Y-195085771D01*
X194645058Y-196014343D02*
X195073629Y-196585771D01*
X195073629Y-195585771D02*
X194502201Y-196157200D01*
X195716487Y-196585771D02*
X195716487Y-195585771D01*
X195716487Y-195085771D02*
X195645058Y-195157200D01*
X195716487Y-195228629D01*
X195787915Y-195157200D01*
X195716487Y-195085771D01*
X195716487Y-195228629D01*
X197073630Y-196514343D02*
X196930773Y-196585771D01*
X196645059Y-196585771D01*
X196502201Y-196514343D01*
X196430773Y-196442914D01*
X196359344Y-196300057D01*
X196359344Y-195871486D01*
X196430773Y-195728629D01*
X196502201Y-195657200D01*
X196645059Y-195585771D01*
X196930773Y-195585771D01*
X197073630Y-195657200D01*
X198359344Y-196585771D02*
X198359344Y-195800057D01*
X198287915Y-195657200D01*
X198145058Y-195585771D01*
X197859344Y-195585771D01*
X197716487Y-195657200D01*
X198359344Y-196514343D02*
X198216487Y-196585771D01*
X197859344Y-196585771D01*
X197716487Y-196514343D01*
X197645058Y-196371486D01*
X197645058Y-196228629D01*
X197716487Y-196085771D01*
X197859344Y-196014343D01*
X198216487Y-196014343D01*
X198359344Y-195942914D01*
X199716487Y-196585771D02*
X199716487Y-195085771D01*
X199716487Y-196514343D02*
X199573630Y-196585771D01*
X199287916Y-196585771D01*
X199145058Y-196514343D01*
X199073630Y-196442914D01*
X199002201Y-196300057D01*
X199002201Y-195871486D01*
X199073630Y-195728629D01*
X199145058Y-195657200D01*
X199287916Y-195585771D01*
X199573630Y-195585771D01*
X199716487Y-195657200D01*
X202216487Y-195585771D02*
X202216487Y-196585771D01*
X201859344Y-195014343D02*
X201502201Y-196085771D01*
X202430773Y-196085771D01*
X203002201Y-196442914D02*
X203073629Y-196514343D01*
X203002201Y-196585771D01*
X202930772Y-196514343D01*
X203002201Y-196442914D01*
X203002201Y-196585771D01*
X204002201Y-195085771D02*
X204145058Y-195085771D01*
X204287915Y-195157200D01*
X204359344Y-195228629D01*
X204430773Y-195371486D01*
X204502201Y-195657200D01*
X204502201Y-196014343D01*
X204430773Y-196300057D01*
X204359344Y-196442914D01*
X204287915Y-196514343D01*
X204145058Y-196585771D01*
X204002201Y-196585771D01*
X203859344Y-196514343D01*
X203787915Y-196442914D01*
X203716487Y-196300057D01*
X203645058Y-196014343D01*
X203645058Y-195657200D01*
X203716487Y-195371486D01*
X203787915Y-195228629D01*
X203859344Y-195157200D01*
X204002201Y-195085771D01*
X205145058Y-196442914D02*
X205216486Y-196514343D01*
X205145058Y-196585771D01*
X205073629Y-196514343D01*
X205145058Y-196442914D01*
X205145058Y-196585771D01*
X205787915Y-195228629D02*
X205859344Y-195157200D01*
X206002201Y-195085771D01*
X206359344Y-195085771D01*
X206502201Y-195157200D01*
X206573630Y-195228629D01*
X206645058Y-195371486D01*
X206645058Y-195514343D01*
X206573630Y-195728629D01*
X205716487Y-196585771D01*
X206645058Y-196585771D01*
X207287915Y-196014343D02*
X208430772Y-196014343D01*
X209073629Y-196514343D02*
X209216486Y-196585771D01*
X209502201Y-196585771D01*
X209645058Y-196514343D01*
X209716486Y-196371486D01*
X209716486Y-196300057D01*
X209645058Y-196157200D01*
X209502201Y-196085771D01*
X209287915Y-196085771D01*
X209145058Y-196014343D01*
X209073629Y-195871486D01*
X209073629Y-195800057D01*
X209145058Y-195657200D01*
X209287915Y-195585771D01*
X209502201Y-195585771D01*
X209645058Y-195657200D01*
X210145058Y-195585771D02*
X210716487Y-195585771D01*
X210359344Y-195085771D02*
X210359344Y-196371486D01*
X210430772Y-196514343D01*
X210573630Y-196585771D01*
X210716487Y-196585771D01*
X211859344Y-196585771D02*
X211859344Y-195800057D01*
X211787915Y-195657200D01*
X211645058Y-195585771D01*
X211359344Y-195585771D01*
X211216487Y-195657200D01*
X211859344Y-196514343D02*
X211716487Y-196585771D01*
X211359344Y-196585771D01*
X211216487Y-196514343D01*
X211145058Y-196371486D01*
X211145058Y-196228629D01*
X211216487Y-196085771D01*
X211359344Y-196014343D01*
X211716487Y-196014343D01*
X211859344Y-195942914D01*
X212573630Y-196585771D02*
X212573630Y-195085771D01*
X212573630Y-195657200D02*
X212716487Y-195585771D01*
X213002201Y-195585771D01*
X213145058Y-195657200D01*
X213216487Y-195728629D01*
X213287916Y-195871486D01*
X213287916Y-196300057D01*
X213216487Y-196442914D01*
X213145058Y-196514343D01*
X213002201Y-196585771D01*
X212716487Y-196585771D01*
X212573630Y-196514343D01*
X214145059Y-196585771D02*
X214002201Y-196514343D01*
X213930773Y-196371486D01*
X213930773Y-195085771D01*
X215287915Y-196514343D02*
X215145058Y-196585771D01*
X214859344Y-196585771D01*
X214716487Y-196514343D01*
X214645058Y-196371486D01*
X214645058Y-195800057D01*
X214716487Y-195657200D01*
X214859344Y-195585771D01*
X215145058Y-195585771D01*
X215287915Y-195657200D01*
X215359344Y-195800057D01*
X215359344Y-195942914D01*
X214645058Y-196085771D01*
D10*
D11*
X177002200Y-191507200D02*
X285002200Y-191507200D01*
D10*
D12*
X264216486Y-193785771D02*
X263716486Y-193071486D01*
X263359343Y-193785771D02*
X263359343Y-192285771D01*
X263930771Y-192285771D01*
X264073629Y-192357200D01*
X264145057Y-192428629D01*
X264216486Y-192571486D01*
X264216486Y-192785771D01*
X264145057Y-192928629D01*
X264073629Y-193000057D01*
X263930771Y-193071486D01*
X263359343Y-193071486D01*
X265430771Y-193714343D02*
X265287914Y-193785771D01*
X265002200Y-193785771D01*
X264859343Y-193714343D01*
X264787914Y-193571486D01*
X264787914Y-193000057D01*
X264859343Y-192857200D01*
X265002200Y-192785771D01*
X265287914Y-192785771D01*
X265430771Y-192857200D01*
X265502200Y-193000057D01*
X265502200Y-193142914D01*
X264787914Y-193285771D01*
X266002200Y-192785771D02*
X266359343Y-193785771D01*
X266716485Y-192785771D01*
X267287914Y-193642914D02*
X267359342Y-193714343D01*
X267287914Y-193785771D01*
X267216485Y-193714343D01*
X267287914Y-193642914D01*
X267287914Y-193785771D01*
X267287914Y-192857200D02*
X267359342Y-192928629D01*
X267287914Y-193000057D01*
X267216485Y-192928629D01*
X267287914Y-192857200D01*
X267287914Y-193000057D01*
X269930771Y-193785771D02*
X269073628Y-193785771D01*
X269502200Y-193785771D02*
X269502200Y-192285771D01*
X269359343Y-192500057D01*
X269216485Y-192642914D01*
X269073628Y-192714343D01*
X270573628Y-193642914D02*
X270645056Y-193714343D01*
X270573628Y-193785771D01*
X270502199Y-193714343D01*
X270573628Y-193642914D01*
X270573628Y-193785771D01*
X271573628Y-192285771D02*
X271716485Y-192285771D01*
X271859342Y-192357200D01*
X271930771Y-192428629D01*
X272002200Y-192571486D01*
X272073628Y-192857200D01*
X272073628Y-193214343D01*
X272002200Y-193500057D01*
X271930771Y-193642914D01*
X271859342Y-193714343D01*
X271716485Y-193785771D01*
X271573628Y-193785771D01*
X271430771Y-193714343D01*
X271359342Y-193642914D01*
X271287914Y-193500057D01*
X271216485Y-193214343D01*
X271216485Y-192857200D01*
X271287914Y-192571486D01*
X271359342Y-192428629D01*
X271430771Y-192357200D01*
X271573628Y-192285771D01*
D10*
D11*
X178287914Y-193714343D02*
X178502200Y-193785771D01*
X178859343Y-193785771D01*
X179002200Y-193714343D01*
X179073629Y-193642914D01*
X179145057Y-193500057D01*
X179145057Y-193357200D01*
X179073629Y-193214343D01*
X179002200Y-193142914D01*
X178859343Y-193071486D01*
X178573629Y-193000057D01*
X178430771Y-192928629D01*
X178359343Y-192857200D01*
X178287914Y-192714343D01*
X178287914Y-192571486D01*
X178359343Y-192428629D01*
X178430771Y-192357200D01*
X178573629Y-192285771D01*
X178930771Y-192285771D01*
X179145057Y-192357200D01*
X179787914Y-193785771D02*
X179787914Y-192785771D01*
X179787914Y-192285771D02*
X179716485Y-192357200D01*
X179787914Y-192428629D01*
X179859342Y-192357200D01*
X179787914Y-192285771D01*
X179787914Y-192428629D01*
X180359343Y-192785771D02*
X181145057Y-192785771D01*
X180359343Y-193785771D01*
X181145057Y-193785771D01*
X182287914Y-193714343D02*
X182145057Y-193785771D01*
X181859343Y-193785771D01*
X181716486Y-193714343D01*
X181645057Y-193571486D01*
X181645057Y-193000057D01*
X181716486Y-192857200D01*
X181859343Y-192785771D01*
X182145057Y-192785771D01*
X182287914Y-192857200D01*
X182359343Y-193000057D01*
X182359343Y-193142914D01*
X181645057Y-193285771D01*
X183002200Y-193642914D02*
X183073628Y-193714343D01*
X183002200Y-193785771D01*
X182930771Y-193714343D01*
X183002200Y-193642914D01*
X183002200Y-193785771D01*
X183002200Y-192857200D02*
X183073628Y-192928629D01*
X183002200Y-193000057D01*
X182930771Y-192928629D01*
X183002200Y-192857200D01*
X183002200Y-193000057D01*
X184787914Y-193357200D02*
X185502200Y-193357200D01*
X184645057Y-193785771D02*
X185145057Y-192285771D01*
X185645057Y-193785771D01*
X186787914Y-192785771D02*
X186787914Y-193785771D01*
X186430771Y-192214343D02*
X186073628Y-193285771D01*
X187002200Y-193285771D01*
D10*
D11*
X263359343Y-196585771D02*
X263359343Y-195085771D01*
X264716486Y-196585771D02*
X264716486Y-195085771D01*
X264716486Y-196514343D02*
X264573629Y-196585771D01*
X264287915Y-196585771D01*
X264145057Y-196514343D01*
X264073629Y-196442914D01*
X264002200Y-196300057D01*
X264002200Y-195871486D01*
X264073629Y-195728629D01*
X264145057Y-195657200D01*
X264287915Y-195585771D01*
X264573629Y-195585771D01*
X264716486Y-195657200D01*
X265430772Y-196442914D02*
X265502200Y-196514343D01*
X265430772Y-196585771D01*
X265359343Y-196514343D01*
X265430772Y-196442914D01*
X265430772Y-196585771D01*
X265430772Y-195657200D02*
X265502200Y-195728629D01*
X265430772Y-195800057D01*
X265359343Y-195728629D01*
X265430772Y-195657200D01*
X265430772Y-195800057D01*
X268073629Y-196585771D02*
X267216486Y-196585771D01*
X267645058Y-196585771D02*
X267645058Y-195085771D01*
X267502201Y-195300057D01*
X267359343Y-195442914D01*
X267216486Y-195514343D01*
X269787914Y-195014343D02*
X268502200Y-196942914D01*
X271073629Y-196585771D02*
X270216486Y-196585771D01*
X270645058Y-196585771D02*
X270645058Y-195085771D01*
X270502201Y-195300057D01*
X270359343Y-195442914D01*
X270216486Y-195514343D01*
D10*
D11*
X177002200Y-187507200D02*
X285002200Y-187507200D01*
D10*
D13*
X178454581Y-188211962D02*
X179597438Y-188211962D01*
X178776010Y-190211962D02*
X179026010Y-188211962D01*
X180014105Y-190211962D02*
X180180771Y-188878629D01*
X180264105Y-188211962D02*
X180156962Y-188307200D01*
X180240295Y-188402438D01*
X180347439Y-188307200D01*
X180264105Y-188211962D01*
X180240295Y-188402438D01*
X180847438Y-188878629D02*
X181609343Y-188878629D01*
X181216486Y-188211962D02*
X181002200Y-189926248D01*
X181073630Y-190116724D01*
X181252201Y-190211962D01*
X181442677Y-190211962D01*
X182395058Y-190211962D02*
X182216487Y-190116724D01*
X182145057Y-189926248D01*
X182359343Y-188211962D01*
X183930772Y-190116724D02*
X183728391Y-190211962D01*
X183347439Y-190211962D01*
X183168867Y-190116724D01*
X183097438Y-189926248D01*
X183192676Y-189164343D01*
X183311724Y-188973867D01*
X183514105Y-188878629D01*
X183895057Y-188878629D01*
X184073629Y-188973867D01*
X184145057Y-189164343D01*
X184121248Y-189354819D01*
X183145057Y-189545295D01*
X184895057Y-190021486D02*
X184978392Y-190116724D01*
X184871248Y-190211962D01*
X184787915Y-190116724D01*
X184895057Y-190021486D01*
X184871248Y-190211962D01*
X185026010Y-188973867D02*
X185109344Y-189069105D01*
X185002200Y-189164343D01*
X184918867Y-189069105D01*
X185026010Y-188973867D01*
X185002200Y-189164343D01*
X188490297Y-190211962D02*
X187942677Y-189259581D01*
X187347439Y-190211962D02*
X187597439Y-188211962D01*
X188359344Y-188211962D01*
X188537915Y-188307200D01*
X188621249Y-188402438D01*
X188692678Y-188592914D01*
X188656963Y-188878629D01*
X188537916Y-189069105D01*
X188430772Y-189164343D01*
X188228391Y-189259581D01*
X187466486Y-189259581D01*
X189347439Y-190211962D02*
X189597439Y-188211962D01*
X190204582Y-190211962D02*
X190335534Y-189164343D01*
X190264106Y-188973867D01*
X190085534Y-188878629D01*
X189799820Y-188878629D01*
X189597440Y-188973867D01*
X189490296Y-189069105D01*
X191156963Y-190211962D02*
X191323629Y-188878629D01*
X191406963Y-188211962D02*
X191299820Y-188307200D01*
X191383153Y-188402438D01*
X191490297Y-188307200D01*
X191406963Y-188211962D01*
X191383153Y-188402438D01*
X192276010Y-188878629D02*
X192109344Y-190211962D01*
X192252201Y-189069105D02*
X192359345Y-188973867D01*
X192561725Y-188878629D01*
X192847439Y-188878629D01*
X193026011Y-188973867D01*
X193097439Y-189164343D01*
X192966487Y-190211962D01*
X194204583Y-190211962D02*
X194026012Y-190116724D01*
X193942677Y-190021486D01*
X193871249Y-189831010D01*
X193942677Y-189259581D01*
X194061725Y-189069105D01*
X194168869Y-188973867D01*
X194371249Y-188878629D01*
X194656963Y-188878629D01*
X194835535Y-188973867D01*
X194918868Y-189069105D01*
X194990296Y-189259581D01*
X194918868Y-189831010D01*
X194799820Y-190021486D01*
X194692678Y-190116724D01*
X194490297Y-190211962D01*
X194204583Y-190211962D01*
X196680773Y-190211962D02*
X195728392Y-190211962D01*
X195978392Y-188211962D01*
X197633155Y-190211962D02*
X197454584Y-190116724D01*
X197371249Y-190021486D01*
X197299821Y-189831010D01*
X197371249Y-189259581D01*
X197490297Y-189069105D01*
X197597441Y-188973867D01*
X197799821Y-188878629D01*
X198085535Y-188878629D01*
X198264107Y-188973867D01*
X198347440Y-189069105D01*
X198418868Y-189259581D01*
X198347440Y-189831010D01*
X198228392Y-190021486D01*
X198121250Y-190116724D01*
X197918869Y-190211962D01*
X197633155Y-190211962D01*
X200180773Y-188878629D02*
X199978392Y-190497676D01*
X199859345Y-190688152D01*
X199752202Y-190783390D01*
X199549821Y-190878629D01*
X199264107Y-190878629D01*
X199085535Y-190783390D01*
X200026012Y-190116724D02*
X199823631Y-190211962D01*
X199442679Y-190211962D01*
X199264108Y-190116724D01*
X199180773Y-190021486D01*
X199109345Y-189831010D01*
X199180773Y-189259581D01*
X199299821Y-189069105D01*
X199406965Y-188973867D01*
X199609345Y-188878629D01*
X199990297Y-188878629D01*
X200168869Y-188973867D01*
X201990297Y-188878629D02*
X201787916Y-190497676D01*
X201668869Y-190688152D01*
X201561726Y-190783390D01*
X201359345Y-190878629D01*
X201073631Y-190878629D01*
X200895059Y-190783390D01*
X201835536Y-190116724D02*
X201633155Y-190211962D01*
X201252203Y-190211962D01*
X201073632Y-190116724D01*
X200990297Y-190021486D01*
X200918869Y-189831010D01*
X200990297Y-189259581D01*
X201109345Y-189069105D01*
X201216489Y-188973867D01*
X201418869Y-188878629D01*
X201799821Y-188878629D01*
X201978393Y-188973867D01*
X203549822Y-190116724D02*
X203347441Y-190211962D01*
X202966489Y-190211962D01*
X202787917Y-190116724D01*
X202716488Y-189926248D01*
X202811726Y-189164343D01*
X202930774Y-188973867D01*
X203133155Y-188878629D01*
X203514107Y-188878629D01*
X203692679Y-188973867D01*
X203764107Y-189164343D01*
X203740298Y-189354819D01*
X202764107Y-189545295D01*
X204490298Y-190211962D02*
X204656964Y-188878629D01*
X204609345Y-189259581D02*
X204728394Y-189069105D01*
X204835537Y-188973867D01*
X205037917Y-188878629D01*
X205228393Y-188878629D01*
D10*
D11*
X178859343Y-185600057D02*
X178359343Y-185600057D01*
X178359343Y-186385771D02*
X178359343Y-184885771D01*
X179073629Y-184885771D01*
X179645057Y-186385771D02*
X179645057Y-185385771D01*
X179645057Y-184885771D02*
X179573628Y-184957200D01*
X179645057Y-185028629D01*
X179716485Y-184957200D01*
X179645057Y-184885771D01*
X179645057Y-185028629D01*
X180573629Y-186385771D02*
X180430771Y-186314343D01*
X180359343Y-186171486D01*
X180359343Y-184885771D01*
X181716485Y-186314343D02*
X181573628Y-186385771D01*
X181287914Y-186385771D01*
X181145057Y-186314343D01*
X181073628Y-186171486D01*
X181073628Y-185600057D01*
X181145057Y-185457200D01*
X181287914Y-185385771D01*
X181573628Y-185385771D01*
X181716485Y-185457200D01*
X181787914Y-185600057D01*
X181787914Y-185742914D01*
X181073628Y-185885771D01*
X182430771Y-186242914D02*
X182502199Y-186314343D01*
X182430771Y-186385771D01*
X182359342Y-186314343D01*
X182430771Y-186242914D01*
X182430771Y-186385771D01*
X182430771Y-185457200D02*
X182502199Y-185528629D01*
X182430771Y-185600057D01*
X182359342Y-185528629D01*
X182430771Y-185457200D01*
X182430771Y-185600057D01*
X185145057Y-186385771D02*
X184645057Y-185671486D01*
X184287914Y-186385771D02*
X184287914Y-184885771D01*
X184859342Y-184885771D01*
X185002200Y-184957200D01*
X185073628Y-185028629D01*
X185145057Y-185171486D01*
X185145057Y-185385771D01*
X185073628Y-185528629D01*
X185002200Y-185600057D01*
X184859342Y-185671486D01*
X184287914Y-185671486D01*
X185787914Y-186385771D02*
X185787914Y-184885771D01*
X186430771Y-186385771D02*
X186430771Y-185600057D01*
X186359342Y-185457200D01*
X186216485Y-185385771D01*
X186002200Y-185385771D01*
X185859342Y-185457200D01*
X185787914Y-185528629D01*
X187145057Y-186385771D02*
X187145057Y-185385771D01*
X187145057Y-184885771D02*
X187073628Y-184957200D01*
X187145057Y-185028629D01*
X187216485Y-184957200D01*
X187145057Y-184885771D01*
X187145057Y-185028629D01*
X187859343Y-185385771D02*
X187859343Y-186385771D01*
X187859343Y-185528629D02*
X187930771Y-185457200D01*
X188073629Y-185385771D01*
X188287914Y-185385771D01*
X188430771Y-185457200D01*
X188502200Y-185600057D01*
X188502200Y-186385771D01*
X189430772Y-186385771D02*
X189287914Y-186314343D01*
X189216486Y-186242914D01*
X189145057Y-186100057D01*
X189145057Y-185671486D01*
X189216486Y-185528629D01*
X189287914Y-185457200D01*
X189430772Y-185385771D01*
X189645057Y-185385771D01*
X189787914Y-185457200D01*
X189859343Y-185528629D01*
X189930772Y-185671486D01*
X189930772Y-186100057D01*
X189859343Y-186242914D01*
X189787914Y-186314343D01*
X189645057Y-186385771D01*
X189430772Y-186385771D01*
X191287915Y-186385771D02*
X190573629Y-186385771D01*
X190573629Y-184885771D01*
X192002201Y-186385771D02*
X191859343Y-186314343D01*
X191787915Y-186242914D01*
X191716486Y-186100057D01*
X191716486Y-185671486D01*
X191787915Y-185528629D01*
X191859343Y-185457200D01*
X192002201Y-185385771D01*
X192216486Y-185385771D01*
X192359343Y-185457200D01*
X192430772Y-185528629D01*
X192502201Y-185671486D01*
X192502201Y-186100057D01*
X192430772Y-186242914D01*
X192359343Y-186314343D01*
X192216486Y-186385771D01*
X192002201Y-186385771D01*
X193787915Y-185385771D02*
X193787915Y-186600057D01*
X193716486Y-186742914D01*
X193645058Y-186814343D01*
X193502201Y-186885771D01*
X193287915Y-186885771D01*
X193145058Y-186814343D01*
X193787915Y-186314343D02*
X193645058Y-186385771D01*
X193359344Y-186385771D01*
X193216486Y-186314343D01*
X193145058Y-186242914D01*
X193073629Y-186100057D01*
X193073629Y-185671486D01*
X193145058Y-185528629D01*
X193216486Y-185457200D01*
X193359344Y-185385771D01*
X193645058Y-185385771D01*
X193787915Y-185457200D01*
X195145058Y-185385771D02*
X195145058Y-186600057D01*
X195073629Y-186742914D01*
X195002201Y-186814343D01*
X194859344Y-186885771D01*
X194645058Y-186885771D01*
X194502201Y-186814343D01*
X195145058Y-186314343D02*
X195002201Y-186385771D01*
X194716487Y-186385771D01*
X194573629Y-186314343D01*
X194502201Y-186242914D01*
X194430772Y-186100057D01*
X194430772Y-185671486D01*
X194502201Y-185528629D01*
X194573629Y-185457200D01*
X194716487Y-185385771D01*
X195002201Y-185385771D01*
X195145058Y-185457200D01*
X196430772Y-186314343D02*
X196287915Y-186385771D01*
X196002201Y-186385771D01*
X195859344Y-186314343D01*
X195787915Y-186171486D01*
X195787915Y-185600057D01*
X195859344Y-185457200D01*
X196002201Y-185385771D01*
X196287915Y-185385771D01*
X196430772Y-185457200D01*
X196502201Y-185600057D01*
X196502201Y-185742914D01*
X195787915Y-185885771D01*
X197145058Y-186385771D02*
X197145058Y-185385771D01*
X197145058Y-185671486D02*
X197216486Y-185528629D01*
X197287915Y-185457200D01*
X197430772Y-185385771D01*
X197573629Y-185385771D01*
X198073629Y-186242914D02*
X198145057Y-186314343D01*
X198073629Y-186385771D01*
X198002200Y-186314343D01*
X198073629Y-186242914D01*
X198073629Y-186385771D01*
X198787915Y-186385771D02*
X198787915Y-184885771D01*
X198930772Y-185814343D02*
X199359343Y-186385771D01*
X199359343Y-185385771D02*
X198787915Y-185957200D01*
X200002201Y-186385771D02*
X200002201Y-185385771D01*
X200002201Y-184885771D02*
X199930772Y-184957200D01*
X200002201Y-185028629D01*
X200073629Y-184957200D01*
X200002201Y-184885771D01*
X200002201Y-185028629D01*
X201359344Y-186314343D02*
X201216487Y-186385771D01*
X200930773Y-186385771D01*
X200787915Y-186314343D01*
X200716487Y-186242914D01*
X200645058Y-186100057D01*
X200645058Y-185671486D01*
X200716487Y-185528629D01*
X200787915Y-185457200D01*
X200930773Y-185385771D01*
X201216487Y-185385771D01*
X201359344Y-185457200D01*
X202645058Y-186385771D02*
X202645058Y-185600057D01*
X202573629Y-185457200D01*
X202430772Y-185385771D01*
X202145058Y-185385771D01*
X202002201Y-185457200D01*
X202645058Y-186314343D02*
X202502201Y-186385771D01*
X202145058Y-186385771D01*
X202002201Y-186314343D01*
X201930772Y-186171486D01*
X201930772Y-186028629D01*
X202002201Y-185885771D01*
X202145058Y-185814343D01*
X202502201Y-185814343D01*
X202645058Y-185742914D01*
X204002201Y-186385771D02*
X204002201Y-184885771D01*
X204002201Y-186314343D02*
X203859344Y-186385771D01*
X203573630Y-186385771D01*
X203430772Y-186314343D01*
X203359344Y-186242914D01*
X203287915Y-186100057D01*
X203287915Y-185671486D01*
X203359344Y-185528629D01*
X203430772Y-185457200D01*
X203573630Y-185385771D01*
X203859344Y-185385771D01*
X204002201Y-185457200D01*
X204359344Y-186528629D02*
X205502201Y-186528629D01*
X205859344Y-185385771D02*
X205859344Y-186885771D01*
X205859344Y-185457200D02*
X206002201Y-185385771D01*
X206287915Y-185385771D01*
X206430772Y-185457200D01*
X206502201Y-185528629D01*
X206573630Y-185671486D01*
X206573630Y-186100057D01*
X206502201Y-186242914D01*
X206430772Y-186314343D01*
X206287915Y-186385771D01*
X206002201Y-186385771D01*
X205859344Y-186314343D01*
X207859344Y-186314343D02*
X207716487Y-186385771D01*
X207430773Y-186385771D01*
X207287915Y-186314343D01*
X207216487Y-186242914D01*
X207145058Y-186100057D01*
X207145058Y-185671486D01*
X207216487Y-185528629D01*
X207287915Y-185457200D01*
X207430773Y-185385771D01*
X207716487Y-185385771D01*
X207859344Y-185457200D01*
X208502201Y-186385771D02*
X208502201Y-184885771D01*
X208502201Y-185457200D02*
X208645058Y-185385771D01*
X208930772Y-185385771D01*
X209073629Y-185457200D01*
X209145058Y-185528629D01*
X209216487Y-185671486D01*
X209216487Y-186100057D01*
X209145058Y-186242914D01*
X209073629Y-186314343D01*
X208930772Y-186385771D01*
X208645058Y-186385771D01*
X208502201Y-186314343D01*
D10*
D11*
X177002200Y-181507200D02*
X285002200Y-181507200D01*
D10*
D11*
X178287914Y-183614343D02*
X178502200Y-183685771D01*
X178859343Y-183685771D01*
X179002200Y-183614343D01*
X179073629Y-183542914D01*
X179145057Y-183400057D01*
X179145057Y-183257200D01*
X179073629Y-183114343D01*
X179002200Y-183042914D01*
X178859343Y-182971486D01*
X178573629Y-182900057D01*
X178430771Y-182828629D01*
X178359343Y-182757200D01*
X178287914Y-182614343D01*
X178287914Y-182471486D01*
X178359343Y-182328629D01*
X178430771Y-182257200D01*
X178573629Y-182185771D01*
X178930771Y-182185771D01*
X179145057Y-182257200D01*
X179787914Y-183685771D02*
X179787914Y-182185771D01*
X180430771Y-183685771D02*
X180430771Y-182900057D01*
X180359342Y-182757200D01*
X180216485Y-182685771D01*
X180002200Y-182685771D01*
X179859342Y-182757200D01*
X179787914Y-182828629D01*
X181716485Y-183614343D02*
X181573628Y-183685771D01*
X181287914Y-183685771D01*
X181145057Y-183614343D01*
X181073628Y-183471486D01*
X181073628Y-182900057D01*
X181145057Y-182757200D01*
X181287914Y-182685771D01*
X181573628Y-182685771D01*
X181716485Y-182757200D01*
X181787914Y-182900057D01*
X181787914Y-183042914D01*
X181073628Y-183185771D01*
X183002199Y-183614343D02*
X182859342Y-183685771D01*
X182573628Y-183685771D01*
X182430771Y-183614343D01*
X182359342Y-183471486D01*
X182359342Y-182900057D01*
X182430771Y-182757200D01*
X182573628Y-182685771D01*
X182859342Y-182685771D01*
X183002199Y-182757200D01*
X183073628Y-182900057D01*
X183073628Y-183042914D01*
X182359342Y-183185771D01*
X183502199Y-182685771D02*
X184073628Y-182685771D01*
X183716485Y-182185771D02*
X183716485Y-183471486D01*
X183787913Y-183614343D01*
X183930771Y-183685771D01*
X184073628Y-183685771D01*
X184573628Y-183542914D02*
X184645056Y-183614343D01*
X184573628Y-183685771D01*
X184502199Y-183614343D01*
X184573628Y-183542914D01*
X184573628Y-183685771D01*
X184573628Y-182757200D02*
X184645056Y-182828629D01*
X184573628Y-182900057D01*
X184502199Y-182828629D01*
X184573628Y-182757200D01*
X184573628Y-182900057D01*
D10*
D11*
X197002200Y-191507200D02*
X197002200Y-194507200D01*
D10*
D11*
X261002200Y-191507200D02*
X261002200Y-198007200D01*
X137160000Y-58420000D02*
X236220000Y-58420000D01*
X137160000Y-124460000D02*
X137160000Y-58420000D01*
X236220000Y-124460000D02*
X137160000Y-124460000D01*
X236220000Y-58420000D02*
X236220000Y-124460000D01*
D12*
X180618572Y-47588571D02*
X180904287Y-47588571D01*
X181047144Y-47517143D01*
X181118572Y-47445714D01*
X181261430Y-47231429D01*
X181332858Y-46945714D01*
X181332858Y-46374286D01*
X181261430Y-46231429D01*
X181190001Y-46160000D01*
X181047144Y-46088571D01*
X180761430Y-46088571D01*
X180618572Y-46160000D01*
X180547144Y-46231429D01*
X180475715Y-46374286D01*
X180475715Y-46731429D01*
X180547144Y-46874286D01*
X180618572Y-46945714D01*
X180761430Y-47017143D01*
X181047144Y-47017143D01*
X181190001Y-46945714D01*
X181261430Y-46874286D01*
X181332858Y-46731429D01*
X182047143Y-47588571D02*
X182332858Y-47588571D01*
X182475715Y-47517143D01*
X182547143Y-47445714D01*
X182690001Y-47231429D01*
X182761429Y-46945714D01*
X182761429Y-46374286D01*
X182690001Y-46231429D01*
X182618572Y-46160000D01*
X182475715Y-46088571D01*
X182190001Y-46088571D01*
X182047143Y-46160000D01*
X181975715Y-46231429D01*
X181904286Y-46374286D01*
X181904286Y-46731429D01*
X181975715Y-46874286D01*
X182047143Y-46945714D01*
X182190001Y-47017143D01*
X182475715Y-47017143D01*
X182618572Y-46945714D01*
X182690001Y-46874286D01*
X182761429Y-46731429D01*
X183475714Y-47517143D02*
X183475714Y-47588571D01*
X183404286Y-47731429D01*
X183332857Y-47802857D01*
X184404286Y-46088571D02*
X184547143Y-46088571D01*
X184690000Y-46160000D01*
X184761429Y-46231429D01*
X184832858Y-46374286D01*
X184904286Y-46660000D01*
X184904286Y-47017143D01*
X184832858Y-47302857D01*
X184761429Y-47445714D01*
X184690000Y-47517143D01*
X184547143Y-47588571D01*
X184404286Y-47588571D01*
X184261429Y-47517143D01*
X184190000Y-47445714D01*
X184118572Y-47302857D01*
X184047143Y-47017143D01*
X184047143Y-46660000D01*
X184118572Y-46374286D01*
X184190000Y-46231429D01*
X184261429Y-46160000D01*
X184404286Y-46088571D01*
X186190000Y-46088571D02*
X185904286Y-46088571D01*
X185761429Y-46160000D01*
X185690000Y-46231429D01*
X185547143Y-46445714D01*
X185475714Y-46731429D01*
X185475714Y-47302857D01*
X185547143Y-47445714D01*
X185618571Y-47517143D01*
X185761429Y-47588571D01*
X186047143Y-47588571D01*
X186190000Y-47517143D01*
X186261429Y-47445714D01*
X186332857Y-47302857D01*
X186332857Y-46945714D01*
X186261429Y-46802857D01*
X186190000Y-46731429D01*
X186047143Y-46660000D01*
X185761429Y-46660000D01*
X185618571Y-46731429D01*
X185547143Y-46802857D01*
X185475714Y-46945714D01*
X187261428Y-46088571D02*
X187404285Y-46088571D01*
X187547142Y-46160000D01*
X187618571Y-46231429D01*
X187690000Y-46374286D01*
X187761428Y-46660000D01*
X187761428Y-47017143D01*
X187690000Y-47302857D01*
X187618571Y-47445714D01*
X187547142Y-47517143D01*
X187404285Y-47588571D01*
X187261428Y-47588571D01*
X187118571Y-47517143D01*
X187047142Y-47445714D01*
X186975714Y-47302857D01*
X186904285Y-47017143D01*
X186904285Y-46660000D01*
X186975714Y-46374286D01*
X187047142Y-46231429D01*
X187118571Y-46160000D01*
X187261428Y-46088571D01*
X189547142Y-47588571D02*
X189547142Y-46588571D01*
X189547142Y-46731429D02*
X189618570Y-46660000D01*
X189761428Y-46588571D01*
X189975713Y-46588571D01*
X190118570Y-46660000D01*
X190189999Y-46802857D01*
X190189999Y-47588571D01*
X190189999Y-46802857D02*
X190261428Y-46660000D01*
X190404285Y-46588571D01*
X190618570Y-46588571D01*
X190761428Y-46660000D01*
X190832856Y-46802857D01*
X190832856Y-47588571D01*
X191547142Y-47588571D02*
X191547142Y-46588571D01*
X191547142Y-46731429D02*
X191618570Y-46660000D01*
X191761428Y-46588571D01*
X191975713Y-46588571D01*
X192118570Y-46660000D01*
X192189999Y-46802857D01*
X192189999Y-47588571D01*
X192189999Y-46802857D02*
X192261428Y-46660000D01*
X192404285Y-46588571D01*
X192618570Y-46588571D01*
X192761428Y-46660000D01*
X192832856Y-46802857D01*
X192832856Y-47588571D01*
X236220000Y-48260000D02*
X137160000Y-48260000D01*
X236220000Y-53340000D02*
X236220000Y-45560000D01*
X137160000Y-53340000D02*
X137160000Y-45560000D01*
X137160000Y-48260000D02*
X138286504Y-47673579D01*
X137160000Y-48260000D02*
X138286504Y-48846421D01*
X236220000Y-48260000D02*
X235093496Y-47673579D01*
X236220000Y-48260000D02*
X235093496Y-48846421D01*
X248551429Y-85940001D02*
X248551429Y-85654287D01*
X248480000Y-85511430D01*
X248408571Y-85440001D01*
X248194286Y-85297144D01*
X247908571Y-85225715D01*
X247337143Y-85225715D01*
X247194286Y-85297144D01*
X247122857Y-85368572D01*
X247051429Y-85511430D01*
X247051429Y-85797144D01*
X247122857Y-85940001D01*
X247194286Y-86011430D01*
X247337143Y-86082858D01*
X247694286Y-86082858D01*
X247837143Y-86011430D01*
X247908571Y-85940001D01*
X247980000Y-85797144D01*
X247980000Y-85511430D01*
X247908571Y-85368572D01*
X247837143Y-85297144D01*
X247694286Y-85225715D01*
X248551429Y-87368572D02*
X248551429Y-87082858D01*
X248480000Y-86940001D01*
X248408571Y-86868572D01*
X248194286Y-86725715D01*
X247908571Y-86654286D01*
X247337143Y-86654286D01*
X247194286Y-86725715D01*
X247122857Y-86797143D01*
X247051429Y-86940001D01*
X247051429Y-87225715D01*
X247122857Y-87368572D01*
X247194286Y-87440001D01*
X247337143Y-87511429D01*
X247694286Y-87511429D01*
X247837143Y-87440001D01*
X247908571Y-87368572D01*
X247980000Y-87225715D01*
X247980000Y-86940001D01*
X247908571Y-86797143D01*
X247837143Y-86725715D01*
X247694286Y-86654286D01*
X247122857Y-88225714D02*
X247051429Y-88225714D01*
X246908571Y-88154286D01*
X246837143Y-88082857D01*
X248551429Y-89154286D02*
X248551429Y-89297143D01*
X248480000Y-89440000D01*
X248408571Y-89511429D01*
X248265714Y-89582858D01*
X247980000Y-89654286D01*
X247622857Y-89654286D01*
X247337143Y-89582858D01*
X247194286Y-89511429D01*
X247122857Y-89440000D01*
X247051429Y-89297143D01*
X247051429Y-89154286D01*
X247122857Y-89011429D01*
X247194286Y-88940000D01*
X247337143Y-88868572D01*
X247622857Y-88797143D01*
X247980000Y-88797143D01*
X248265714Y-88868572D01*
X248408571Y-88940000D01*
X248480000Y-89011429D01*
X248551429Y-89154286D01*
X248051429Y-90940000D02*
X247051429Y-90940000D01*
X248622857Y-90582857D02*
X247551429Y-90225714D01*
X247551429Y-91154286D01*
X248551429Y-92011428D02*
X248551429Y-92154285D01*
X248480000Y-92297142D01*
X248408571Y-92368571D01*
X248265714Y-92440000D01*
X247980000Y-92511428D01*
X247622857Y-92511428D01*
X247337143Y-92440000D01*
X247194286Y-92368571D01*
X247122857Y-92297142D01*
X247051429Y-92154285D01*
X247051429Y-92011428D01*
X247122857Y-91868571D01*
X247194286Y-91797142D01*
X247337143Y-91725714D01*
X247622857Y-91654285D01*
X247980000Y-91654285D01*
X248265714Y-91725714D01*
X248408571Y-91797142D01*
X248480000Y-91868571D01*
X248551429Y-92011428D01*
X247051429Y-94297142D02*
X248051429Y-94297142D01*
X247908571Y-94297142D02*
X247980000Y-94368570D01*
X248051429Y-94511428D01*
X248051429Y-94725713D01*
X247980000Y-94868570D01*
X247837143Y-94939999D01*
X247051429Y-94939999D01*
X247837143Y-94939999D02*
X247980000Y-95011428D01*
X248051429Y-95154285D01*
X248051429Y-95368570D01*
X247980000Y-95511428D01*
X247837143Y-95582856D01*
X247051429Y-95582856D01*
X247051429Y-96297142D02*
X248051429Y-96297142D01*
X247908571Y-96297142D02*
X247980000Y-96368570D01*
X248051429Y-96511428D01*
X248051429Y-96725713D01*
X247980000Y-96868570D01*
X247837143Y-96939999D01*
X247051429Y-96939999D01*
X247837143Y-96939999D02*
X247980000Y-97011428D01*
X248051429Y-97154285D01*
X248051429Y-97368570D01*
X247980000Y-97511428D01*
X247837143Y-97582856D01*
X247051429Y-97582856D01*
X246380000Y-58420000D02*
X246380000Y-124460000D01*
X241300000Y-58420000D02*
X249080000Y-58420000D01*
X241300000Y-124460000D02*
X249080000Y-124460000D01*
X246380000Y-124460000D02*
X245793579Y-123333496D01*
X246380000Y-124460000D02*
X246966421Y-123333496D01*
X246380000Y-58420000D02*
X245793579Y-59546504D01*
X246380000Y-58420000D02*
X246966421Y-59546504D01*
M02*
